(kicad_pcb (version 20210606) (generator pcbnew)

  (general
    (thickness 1.36)
  )

  (paper "A4")
  (layers
    (0 "F.Cu" signal)
    (1 "In1.Cu" signal)
    (2 "In2.Cu" signal)
    (31 "B.Cu" signal)
    (32 "B.Adhes" user "B.Adhesive")
    (33 "F.Adhes" user "F.Adhesive")
    (34 "B.Paste" user)
    (35 "F.Paste" user)
    (36 "B.SilkS" user "B.Silkscreen")
    (37 "F.SilkS" user "F.Silkscreen")
    (38 "B.Mask" user)
    (39 "F.Mask" user)
    (40 "Dwgs.User" user "User.Drawings")
    (41 "Cmts.User" user "User.Comments")
    (42 "Eco1.User" user "User.Eco1")
    (43 "Eco2.User" user "User.Eco2")
    (44 "Edge.Cuts" user)
    (45 "Margin" user)
    (46 "B.CrtYd" user "B.Courtyard")
    (47 "F.CrtYd" user "F.Courtyard")
    (48 "B.Fab" user)
    (49 "F.Fab" user)
    (50 "User.1" user)
    (51 "User.2" user)
    (52 "User.3" user)
    (53 "User.4" user)
    (54 "User.5" user)
    (55 "User.6" user)
    (56 "User.7" user)
    (57 "User.8" user)
    (58 "User.9" user)
  )

  (setup
    (stackup
      (layer "F.SilkS" (type "Top Silk Screen"))
      (layer "F.Paste" (type "Top Solder Paste"))
      (layer "F.Mask" (type "Top Solder Mask") (color "Green") (thickness 0.01))
      (layer "F.Cu" (type "copper") (thickness 0.035))
      (layer "dielectric 1" (type "core") (thickness 0.5) (material "FR4") (epsilon_r 4.5) (loss_tangent 0.02))
      (layer "In1.Cu" (type "copper") (thickness 0.035))
      (layer "dielectric 2" (type "prepreg") (thickness 0.2) (material "FR4") (epsilon_r 4.5) (loss_tangent 0.02))
      (layer "In2.Cu" (type "copper") (thickness 0.035))
      (layer "dielectric 3" (type "core") (thickness 0.5) (material "FR4") (epsilon_r 4.5) (loss_tangent 0.02))
      (layer "B.Cu" (type "copper") (thickness 0.035))
      (layer "B.Mask" (type "Bottom Solder Mask") (color "Green") (thickness 0.01))
      (layer "B.Paste" (type "Bottom Solder Paste"))
      (layer "B.SilkS" (type "Bottom Silk Screen"))
      (copper_finish "None")
      (dielectric_constraints no)
    )
    (pad_to_mask_clearance 0)
    (pcbplotparams
      (layerselection 0x00010fc_ffffffff)
      (disableapertmacros false)
      (usegerberextensions false)
      (usegerberattributes true)
      (usegerberadvancedattributes true)
      (creategerberjobfile true)
      (svguseinch false)
      (svgprecision 6)
      (excludeedgelayer true)
      (plotframeref false)
      (viasonmask false)
      (mode 1)
      (useauxorigin false)
      (hpglpennumber 1)
      (hpglpenspeed 20)
      (hpglpendiameter 15.000000)
      (dxfpolygonmode true)
      (dxfimperialunits true)
      (dxfusepcbnewfont true)
      (psnegative false)
      (psa4output false)
      (plotreference true)
      (plotvalue true)
      (plotinvisibletext false)
      (sketchpadsonfab false)
      (subtractmaskfromsilk false)
      (outputformat 1)
      (mirror false)
      (drillshape 1)
      (scaleselection 1)
      (outputdirectory "")
    )
  )

  (net 0 "")
  (net 1 "GND")
  (net 2 "SPI_MOSI")
  (net 3 "SPI_MISO")
  (net 4 "SPI_SCK")
  (net 5 "V_CONN")
  (net 6 "V_CONN_Pin1")

  (footprint "MountingHole:MountingHole_3.2mm_M3_DIN965_Pad" locked (layer "F.Cu")
    (tedit 56D1B4CB) (tstamp 3fdf9afa-7eeb-4781-9718-e8ca6801dc7f)
    (at 76.5 66.5)
    (descr "Mounting Hole 3.2mm, M3, DIN965")
    (tags "mounting hole 3.2mm m3 din965")
    (property "Sheetfile" "FPGA_Essentials.kicad_sch")
    (property "Sheetname" "Essentials")
    (path "/e50f864e-1b63-4202-be62-bf96f7e8e7d2/34f9ef92-b00d-467a-abf5-1c464f7ca937")
    (attr exclude_from_pos_files)
    (fp_text reference "H1" (at 0 -3.8) (layer "F.SilkS")
      (effects (font (size 1 1) (thickness 0.15)))
      (tstamp abea22a8-3959-4a76-a205-29a5858fdd1a)
    )
    (fp_text value "MountingHole_Pad" (at 0 3.8) (layer "F.Fab")
      (effects (font (size 1 1) (thickness 0.15)))
      (tstamp a30cd3a5-b681-46c6-baf7-e6b710a0c761)
    )
    (fp_text user "${REFERENCE}" (at 0.3 0) (layer "F.Fab")
      (effects (font (size 1 1) (thickness 0.15)))
      (tstamp acbc980f-9735-42ad-bb60-4d3c66ebbf8f)
    )
    (fp_circle (center 0 0) (end 2.8 0) (layer "Cmts.User") (width 0.15) (fill none) (tstamp 7803e96a-1500-40e7-9dee-a3d531b14e40))
    (fp_circle (center 0 0) (end 3.05 0) (layer "F.CrtYd") (width 0.05) (fill none) (tstamp 110adf5e-90a7-4073-a922-f683eccdbca4))
    (pad "1" thru_hole circle locked (at 0 0) (size 5.6 5.6) (drill 3.2) (layers *.Cu *.Mask)
      (net 1 "GND") (pinfunction "1") (pintype "input") (tstamp c6c53ef1-a883-436f-a5c4-0b6d6db7c33e))
  )

  (footprint "FPGA_Board_BA_FalkoSchmidt:Connector_MPC3_Wuerth" locked (layer "F.Cu")
    (tedit 61291F8D) (tstamp 50316c9a-cf9b-4799-b569-7a8fc5c650ea)
    (at 48.5 11.75 180)
    (property "Sheetfile" "FPGA_Voltage_Supply.kicad_sch")
    (property "Sheetname" "Voltage_Supply")
    (path "/b5571987-9eed-4b3c-ac65-87cd88ac8057/454741ec-019f-48d7-957b-c88898087ef5")
    (fp_text reference "J3" (at 0 -2 180 unlocked) (layer "F.SilkS")
      (effects (font (size 1 1) (thickness 0.15)))
      (tstamp ac298b93-2a4e-4b62-9554-22f3649c43e6)
    )
    (fp_text value "Power_IN" (at 0 13 180 unlocked) (layer "F.Fab")
      (effects (font (size 1 1) (thickness 0.15)))
      (tstamp eda19ea9-e876-4b54-9c77-fbbab4656a87)
    )
    (fp_line (start -9.5 12) (end 9.5 12) (layer "F.CrtYd") (width 0.12) (tstamp 0235a7d2-10ee-4e4f-a361-f37108a7972b))
    (fp_line (start -9.5 -1) (end -9.5 12) (layer "F.CrtYd") (width 0.12) (tstamp 264ffd92-7bc8-461c-8c7b-84f7bdae7aca))
    (fp_line (start 9.5 -1) (end -9.5 -1) (layer "F.CrtYd") (width 0.12) (tstamp 787a20d1-eb2b-42c7-a09c-e17b220a3c52))
    (fp_line (start 9.5 12) (end 9.5 -1) (layer "F.CrtYd") (width 0.12) (tstamp dbfeeafb-4363-4906-a94f-8cd49e965bc9))
    (fp_line (start 6.325 11.57) (end 6.325 1.67) (layer "F.Fab") (width 0.12) (tstamp 73e88ab1-9078-4fc3-9f74-6beb761b051f))
    (fp_line (start -6.325 11.57) (end 6.325 11.57) (layer "F.Fab") (width 0.12) (tstamp bd5ca62d-5940-41ad-8076-b4ff7cf93e92))
    (fp_line (start -6.325 11.57) (end -6.325 1.67) (layer "F.Fab") (width 0.12) (tstamp bf0e00c1-6276-4223-803a-57dfb57ede63))
    (fp_line (start -6.325 1.67) (end 6.325 1.67) (layer "F.Fab") (width 0.12) (tstamp d945920f-510c-4774-8d9d-261489faaa5c))
    (pad "" smd rect locked (at 6.895 6.97 180) (size 3.43 1.65) (layers "F.Cu" "F.Paste" "F.Mask") (tstamp 2a2735af-2e02-471b-834f-506639baf628))
    (pad "" smd rect locked (at -6.895 6.97 180) (size 3.43 1.65) (layers "F.Cu" "F.Paste" "F.Mask") (tstamp b8f17b3a-081d-49ee-a61a-04dd1beadf37))
    (pad "1" smd rect locked (at 3 1.5 270) (size 2.92 1.27) (layers "F.Cu" "F.Paste" "F.Mask")
      (net 6 "V_CONN_Pin1") (pinfunction "Pin_1") (pintype "passive") (tstamp 0144e091-4f0f-403a-8e6a-15ef714de065))
    (pad "2" smd rect locked (at 0 1.5 270) (size 2.92 1.27) (layers "F.Cu" "F.Paste" "F.Mask")
      (net 1 "GND") (pinfunction "Pin_2") (pintype "passive") (tstamp 7b5b049e-b5b9-4ac6-b2c8-d09a6a81d791))
    (pad "3" smd rect locked (at -3 1.5 270) (size 2.92 1.27) (layers "F.Cu" "F.Paste" "F.Mask")
      (net 5 "V_CONN") (pinfunction "Pin_3") (pintype "passive") (tstamp d78e4fd6-b257-4760-97cb-eb3144d27e2b))
  )

  (footprint "MountingHole:MountingHole_3.2mm_M3_DIN965_Pad" locked (layer "F.Cu")
    (tedit 56D1B4CB) (tstamp 91310304-ea00-4059-878a-f28033073510)
    (at 76.5 3.5)
    (descr "Mounting Hole 3.2mm, M3, DIN965")
    (tags "mounting hole 3.2mm m3 din965")
    (property "Sheetfile" "FPGA_Essentials.kicad_sch")
    (property "Sheetname" "Essentials")
    (path "/e50f864e-1b63-4202-be62-bf96f7e8e7d2/bb1b9e97-8840-4bf9-a1b1-f9c71d2a13e0")
    (attr exclude_from_pos_files)
    (fp_text reference "H2" (at 0 -3.8) (layer "F.SilkS")
      (effects (font (size 1 1) (thickness 0.15)))
      (tstamp f27f57f2-ab38-4227-9688-7ae882db729d)
    )
    (fp_text value "MountingHole_Pad" (at 0 3.8) (layer "F.Fab")
      (effects (font (size 1 1) (thickness 0.15)))
      (tstamp b8391821-ea2c-422a-ba11-72f984361e05)
    )
    (fp_text user "${REFERENCE}" (at 0.3 0) (layer "F.Fab")
      (effects (font (size 1 1) (thickness 0.15)))
      (tstamp 9949b227-749e-494b-a1df-d723d66400bd)
    )
    (fp_circle (center 0 0) (end 2.8 0) (layer "Cmts.User") (width 0.15) (fill none) (tstamp 08a40ee6-491e-49be-a219-be643cd76138))
    (fp_circle (center 0 0) (end 3.05 0) (layer "F.CrtYd") (width 0.05) (fill none) (tstamp 1040fac7-e84c-4dd9-a5cb-3176467a0c9e))
    (pad "1" thru_hole circle locked (at 0 0) (size 5.6 5.6) (drill 3.2) (layers *.Cu *.Mask)
      (net 1 "GND") (pinfunction "1") (pintype "input") (tstamp f5a9a499-195b-4faa-a006-5da8d6e09ef9))
  )

  (footprint "FPGA_Board_BA_FalkoSchmidt:SAMTEC_UMPT-03-01.5-G-VT-SM-WT-K" locked (layer "F.Cu")
    (tedit 60FFBA8A) (tstamp a86d8d53-30d4-4751-acec-5eb971132ecc)
    (at 14 5)
    (property "Sheetfile" "FPGA_Voltage_Supply.kicad_sch")
    (property "Sheetname" "Voltage_Supply")
    (path "/b5571987-9eed-4b3c-ac65-87cd88ac8057/eb24ceab-b8d9-46a8-b75a-281d9b035c63")
    (fp_text reference "J4" (at -4.225 -4.735) (layer "F.SilkS")
      (effects (font (size 1 1) (thickness 0.15)))
      (tstamp c53cc601-3a42-499e-8098-2c894bef9c9b)
    )
    (fp_text value "Power_distr_0" (at 12.82 4.765) (layer "F.Fab")
      (effects (font (size 1 1) (thickness 0.15)))
      (tstamp c8b9b4eb-202e-48ae-a366-9e700a1d527c)
    )
    (fp_poly (pts (xy -7.075 -1.78)
      (xy -4.625 -1.78)
      (xy -4.625 0.5)
      (xy -7.075 0.5)) (layer "F.Paste") (width 0.01) (fill solid) (tstamp 05d0207e-7d9e-40fd-bac0-1eeab2479df4))
    (fp_poly (pts (xy -7.075 0.9)
      (xy -4.625 0.9)
      (xy -4.625 3.18)
      (xy -7.075 3.18)) (layer "F.Paste") (width 0.01) (fill solid) (tstamp 1bc223a4-ab1d-4ff1-84af-df05de94da5f))
    (fp_poly (pts (xy 4.625 0.4)
      (xy 7.075 0.4)
      (xy 7.075 2.68)
      (xy 4.625 2.68)) (layer "F.Paste") (width 0.01) (fill solid) (tstamp cd0e5128-4e4a-40fb-8f50-a44e9989c845))
    (fp_poly (pts (xy 4.625 -2.28)
      (xy 7.075 -2.28)
      (xy 7.075 0)
      (xy 4.625 0)) (layer "F.Paste") (width 0.01) (fill solid) (tstamp d73f6c67-94e7-47d1-8798-3a2e59129724))
    (fp_line (start -6.65 -3.8) (end 6.65 -3.8) (layer "F.SilkS") (width 0.2) (tstamp 0398d44e-f2c4-4aea-b010-c8a9e9d9f7d0))
    (fp_line (start -6.65 -2.02) (end -6.65 -3.8) (layer "F.SilkS") (width 0.2) (tstamp 2eda4249-3726-4a48-861a-bb39b4ed61e9))
    (fp_line (start 6.65 3.8) (end 6.65 2.93) (layer "F.SilkS") (width 0.2) (tstamp 3e9ffcb5-7c5b-4e0b-abe3-27eea7ca42d9))
    (fp_line (start -6.65 3.8) (end 6.65 3.8) (layer "F.SilkS") (width 0.2) (tstamp 853448ee-8695-4ebc-ac91-5f257c8ea40f))
    (fp_line (start 6.65 -3.8) (end 6.65 -2.52) (layer "F.SilkS") (width 0.2) (tstamp a0cdf749-d277-4ee1-ad83-104b7035671a))
    (fp_line (start -6.65 3.43) (end -6.65 3.8) (layer "F.SilkS") (width 0.2) (tstamp f5e1b3a0-5cba-4be9-9cff-6660d9f6acb7))
    (fp_circle (center 2 4.3) (end 2.1 4.3) (layer "F.SilkS") (width 0.2) (fill none) (tstamp f4068c9a-a59b-4932-9ad3-39e5f8dddaab))
    (fp_line (start 7.325 -4.05) (end 7.325 4.05) (layer "F.CrtYd") (width 0.05) (tstamp 0d968021-9754-41a6-9f97-efb20438e035))
    (fp_line (start -7.325 -4.05) (end 7.325 -4.05) (layer "F.CrtYd") (width 0.05) (tstamp 2b0592ef-07b7-4bd3-925d-b4a6bf641dc6))
    (fp_line (start 7.325 4.05) (end -7.325 4.05) (layer "F.CrtYd") (width 0.05) (tstamp 329152ce-3484-418e-995a-d1b6aa49a7a2))
    (fp_line (start -7.325 4.05) (end -7.325 -4.05) (layer "F.CrtYd") (width 0.05) (tstamp 5325ec11-41ae-4657-82d1-729ddd7f8197))
    (fp_line (start 6.65 -3.8) (end 6.65 3.8) (layer "F.Fab") (width 0.1) (tstamp 3a41a1fc-37c3-4341-b86d-6200dd6c858a))
    (fp_line (start -6.65 3.8) (end -6.65 -3.8) (layer "F.Fab") (width 0.1) (tstamp 68524b77-1512-47ef-939c-92c5d467d384))
    (fp_line (start -6.65 -3.8) (end 6.65 -3.8) (layer "F.Fab") (width 0.1) (tstamp dca02b99-a4ca-4bd8-b3cb-4c1ef8a50b0b))
    (fp_line (start 6.65 3.8) (end -6.65 3.8) (layer "F.Fab") (width 0.1) (tstamp ff5813cf-8d96-4f5a-a4c5-fc0e22f21ac2))
    (fp_circle (center 2 4.3) (end 2.1 4.3) (layer "F.Fab") (width 0.2) (fill none) (tstamp a3648291-9f43-4f7f-af1b-2355fd0e8152))
    (pad "1" smd rect locked (at 2 0) (size 1.25 3.5) (layers "F.Cu" "F.Paste" "F.Mask")
      (net 6 "V_CONN_Pin1") (pinfunction "Pin_1") (pintype "passive") (tstamp a2a082fa-2108-4a57-9019-7a5e913b1996))
    (pad "2" smd rect locked (at 0 0) (size 1.25 3.5) (layers "F.Cu" "F.Paste" "F.Mask")
      (net 1 "GND") (pinfunction "Pin_2") (pintype "passive") (tstamp 15c3068b-25d1-4f14-bf7a-9cd4a0f8e725))
    (pad "3" smd rect locked (at -2 0) (size 1.25 3.5) (layers "F.Cu" "F.Paste" "F.Mask")
      (net 5 "V_CONN") (pinfunction "Pin_3") (pintype "passive") (tstamp e0d533b9-b5f6-4f2d-9928-944931ce7d0b))
    (pad "S1" thru_hole circle locked (at -5.85 -0.3) (size 1.308 1.308) (drill 0.8) (layers *.Cu *.Mask) (tstamp c4da441e-d792-4297-94d3-8de5a2f7149d))
    (pad "S2" thru_hole circle locked (at -5.85 1.7) (size 1.308 1.308) (drill 0.8) (layers *.Cu *.Mask) (tstamp 62e98558-0fee-4261-8ed3-fec6eefae008))
    (pad "S3" thru_hole circle locked (at 5.85 -0.8) (size 1.308 1.308) (drill 0.8) (layers *.Cu *.Mask) (tstamp 6ef8adbd-609f-4c55-bfa4-36ee406219c3))
    (pad "S4" thru_hole circle locked (at 5.85 1.2) (size 1.308 1.308) (drill 0.8) (layers *.Cu *.Mask) (tstamp 21b74c05-d106-42fe-bcc9-04273c481942))
  )

  (footprint "MountingHole:MountingHole_3.2mm_M3_DIN965_Pad" locked (layer "F.Cu")
    (tedit 56D1B4CB) (tstamp d730fe41-976f-475e-bb8a-92885c7d482e)
    (at 3.5 66.5)
    (descr "Mounting Hole 3.2mm, M3, DIN965")
    (tags "mounting hole 3.2mm m3 din965")
    (property "Sheetfile" "FPGA_Essentials.kicad_sch")
    (property "Sheetname" "Essentials")
    (path "/e50f864e-1b63-4202-be62-bf96f7e8e7d2/1582bc21-a0ee-4559-ad9e-7989d082d043")
    (attr exclude_from_pos_files)
    (fp_text reference "H4" (at 0 -3.8) (layer "F.SilkS")
      (effects (font (size 1 1) (thickness 0.15)))
      (tstamp b34387df-653e-4d3d-bf97-3cc4fdadec8a)
    )
    (fp_text value "MountingHole_Pad" (at 0 3.8) (layer "F.Fab")
      (effects (font (size 1 1) (thickness 0.15)))
      (tstamp da558bbe-dc4b-4f55-9a4c-0b3b302f7f19)
    )
    (fp_text user "${REFERENCE}" (at 0.3 0) (layer "F.Fab")
      (effects (font (size 1 1) (thickness 0.15)))
      (tstamp c0a743ba-5cfc-4620-b74a-85aac83ba060)
    )
    (fp_circle (center 0 0) (end 2.8 0) (layer "Cmts.User") (width 0.15) (fill none) (tstamp 562e3096-386d-4eb6-b2ba-a6ddc576bfc6))
    (fp_circle (center 0 0) (end 3.05 0) (layer "F.CrtYd") (width 0.05) (fill none) (tstamp ffcbce1e-04fd-4838-a45c-eb1f1b596658))
    (pad "1" thru_hole circle locked (at 0 0) (size 5.6 5.6) (drill 3.2) (layers *.Cu *.Mask)
      (net 1 "GND") (pinfunction "1") (pintype "input") (tstamp 8b8075d6-7e6a-4ec8-8576-1228da94a688))
  )

  (footprint "FPGA_Board_BA_FalkoSchmidt:SAMTEC_UMPT-03-01.5-G-VT-SM-WT-K" locked (layer "F.Cu")
    (tedit 60FFBA8A) (tstamp dd2eb879-f2a6-4f52-9e4b-107de0c7c1ce)
    (at 66 5)
    (property "Sheetfile" "FPGA_Voltage_Supply.kicad_sch")
    (property "Sheetname" "Voltage_Supply")
    (path "/b5571987-9eed-4b3c-ac65-87cd88ac8057/8e2345b4-84f3-46b3-a387-dea0aefa5943")
    (fp_text reference "J7" (at -4.225 -4.735) (layer "F.SilkS")
      (effects (font (size 1 1) (thickness 0.15)))
      (tstamp ece54e43-6a78-4eb0-82ce-fba61e15a127)
    )
    (fp_text value "Power_distr_1" (at 12.82 4.765) (layer "F.Fab")
      (effects (font (size 1 1) (thickness 0.15)))
      (tstamp 2f4129ee-60f4-4e86-8241-7c361d1f15cd)
    )
    (fp_poly (pts (xy 4.625 -2.28)
      (xy 7.075 -2.28)
      (xy 7.075 0)
      (xy 4.625 0)) (layer "F.Paste") (width 0.01) (fill solid) (tstamp 5cea3766-cba9-4ab1-ac4a-f6ab4543fb21))
    (fp_poly (pts (xy 4.625 0.4)
      (xy 7.075 0.4)
      (xy 7.075 2.68)
      (xy 4.625 2.68)) (layer "F.Paste") (width 0.01) (fill solid) (tstamp b8f745bf-ca95-41ee-96de-f70d2f927103))
    (fp_poly (pts (xy -7.075 -1.78)
      (xy -4.625 -1.78)
      (xy -4.625 0.5)
      (xy -7.075 0.5)) (layer "F.Paste") (width 0.01) (fill solid) (tstamp bf77fdd8-36d3-4fef-9b70-d44d1b57b1cd))
    (fp_poly (pts (xy -7.075 0.9)
      (xy -4.625 0.9)
      (xy -4.625 3.18)
      (xy -7.075 3.18)) (layer "F.Paste") (width 0.01) (fill solid) (tstamp c565d3d5-a53f-4cef-aa63-b991b255cb7e))
    (fp_line (start 6.65 3.8) (end 6.65 2.93) (layer "F.SilkS") (width 0.2) (tstamp 0b474892-66b7-48b0-9bac-21cf8dfd6992))
    (fp_line (start -6.65 3.8) (end 6.65 3.8) (layer "F.SilkS") (width 0.2) (tstamp 134ff70d-8f49-40ee-85f7-b8d675d046e9))
    (fp_line (start -6.65 3.43) (end -6.65 3.8) (layer "F.SilkS") (width 0.2) (tstamp 86659888-fb2a-441c-90c9-4facd668dd9a))
    (fp_line (start 6.65 -3.8) (end 6.65 -2.52) (layer "F.SilkS") (width 0.2) (tstamp 9917ee85-1cca-4aa8-8d8c-a1a7ded672e1))
    (fp_line (start -6.65 -3.8) (end 6.65 -3.8) (layer "F.SilkS") (width 0.2) (tstamp ae903a72-4ccf-45df-a33e-b90e93d606bc))
    (fp_line (start -6.65 -2.02) (end -6.65 -3.8) (layer "F.SilkS") (width 0.2) (tstamp d1c2b052-5e22-4e02-84d1-d3bb6add974a))
    (fp_circle (center 2 4.3) (end 2.1 4.3) (layer "F.SilkS") (width 0.2) (fill none) (tstamp 1abcc12f-b740-42ca-8910-fd8b19acdc3e))
    (fp_line (start 7.325 4.05) (end -7.325 4.05) (layer "F.CrtYd") (width 0.05) (tstamp 5dcdac71-62ea-4c36-b266-a8fd23914070))
    (fp_line (start -7.325 -4.05) (end 7.325 -4.05) (layer "F.CrtYd") (width 0.05) (tstamp 9087231d-c17c-4a41-8351-dea82609bac3))
    (fp_line (start -7.325 4.05) (end -7.325 -4.05) (layer "F.CrtYd") (width 0.05) (tstamp c03543f0-e866-4a8f-9efb-c8476249310d))
    (fp_line (start 7.325 -4.05) (end 7.325 4.05) (layer "F.CrtYd") (width 0.05) (tstamp c6c1e520-c0af-47b4-9f75-0e8afc95905a))
    (fp_line (start 6.65 -3.8) (end 6.65 3.8) (layer "F.Fab") (width 0.1) (tstamp 03477075-1d98-4b12-a791-08af882d4fd5))
    (fp_line (start 6.65 3.8) (end -6.65 3.8) (layer "F.Fab") (width 0.1) (tstamp 9b765ed8-c34a-47a2-959c-28fd634fb954))
    (fp_line (start -6.65 -3.8) (end 6.65 -3.8) (layer "F.Fab") (width 0.1) (tstamp ca2d92fe-48ad-4f41-aaa1-2a268be8b421))
    (fp_line (start -6.65 3.8) (end -6.65 -3.8) (layer "F.Fab") (width 0.1) (tstamp fd5db89b-bcce-4df9-9b30-7683016fec6d))
    (fp_circle (center 2 4.3) (end 2.1 4.3) (layer "F.Fab") (width 0.2) (fill none) (tstamp 8989a1fd-4f1e-4c1b-8ed4-c2a4a958733e))
    (pad "1" smd rect locked (at 2 0) (size 1.25 3.5) (layers "F.Cu" "F.Paste" "F.Mask")
      (net 6 "V_CONN_Pin1") (pinfunction "Pin_1") (pintype "passive") (tstamp ed2fccfa-6bb2-45ba-829c-57ed5ca8607c))
    (pad "2" smd rect locked (at 0 0) (size 1.25 3.5) (layers "F.Cu" "F.Paste" "F.Mask")
      (net 1 "GND") (pinfunction "Pin_2") (pintype "passive") (tstamp 79e61c57-31c4-47d3-914b-23c5e04d5278))
    (pad "3" smd rect locked (at -2 0) (size 1.25 3.5) (layers "F.Cu" "F.Paste" "F.Mask")
      (net 5 "V_CONN") (pinfunction "Pin_3") (pintype "passive") (tstamp 33fff147-1e48-4af3-81ed-ef7d7e80b92e))
    (pad "S1" thru_hole circle locked (at -5.85 -0.3) (size 1.308 1.308) (drill 0.8) (layers *.Cu *.Mask) (tstamp a6112b93-4886-4ede-aad3-926aed429cfa))
    (pad "S2" thru_hole circle locked (at -5.85 1.7) (size 1.308 1.308) (drill 0.8) (layers *.Cu *.Mask) (tstamp fafb05b1-57bf-402c-83c2-f06c65c7b9d9))
    (pad "S3" thru_hole circle locked (at 5.85 -0.8) (size 1.308 1.308) (drill 0.8) (layers *.Cu *.Mask) (tstamp 782c5109-4451-4dbd-97a0-1b3bf9e47c91))
    (pad "S4" thru_hole circle locked (at 5.85 1.2) (size 1.308 1.308) (drill 0.8) (layers *.Cu *.Mask) (tstamp 29622cf1-bde2-4d1d-95d7-9900261f1137))
  )

  (footprint "MountingHole:MountingHole_3.2mm_M3_DIN965_Pad" locked (layer "F.Cu")
    (tedit 56D1B4CB) (tstamp e99a4f3d-e43a-4bbd-a67c-f482e08ac800)
    (at 3.5 3.5)
    (descr "Mounting Hole 3.2mm, M3, DIN965")
    (tags "mounting hole 3.2mm m3 din965")
    (property "Sheetfile" "FPGA_Essentials.kicad_sch")
    (property "Sheetname" "Essentials")
    (path "/e50f864e-1b63-4202-be62-bf96f7e8e7d2/d4f0b3b1-8d7d-49d7-ada3-e935da4afb1a")
    (attr exclude_from_pos_files)
    (fp_text reference "H3" (at 0 -3.8) (layer "F.SilkS")
      (effects (font (size 1 1) (thickness 0.15)))
      (tstamp f0f08469-4c79-420a-958a-ea994f6a9585)
    )
    (fp_text value "MountingHole_Pad" (at 0 3.8) (layer "F.Fab")
      (effects (font (size 1 1) (thickness 0.15)))
      (tstamp 9860db50-2ee9-4260-b100-2de84badd2fd)
    )
    (fp_text user "${REFERENCE}" (at 0.3 0) (layer "F.Fab")
      (effects (font (size 1 1) (thickness 0.15)))
      (tstamp bbe872ca-ea5a-4f4a-97de-0b7a6c7c3475)
    )
    (fp_circle (center 0 0) (end 2.8 0) (layer "Cmts.User") (width 0.15) (fill none) (tstamp f4c7d4b3-0325-4b42-9bee-3ce605cfcf9c))
    (fp_circle (center 0 0) (end 3.05 0) (layer "F.CrtYd") (width 0.05) (fill none) (tstamp f3bfa698-c1e9-491e-9845-0f7a881e112c))
    (pad "1" thru_hole circle locked (at 0 0) (size 5.6 5.6) (drill 3.2) (layers *.Cu *.Mask)
      (net 1 "GND") (pinfunction "1") (pintype "input") (tstamp 772e2411-d3eb-477a-bed4-eec46459c2ec))
  )

  (footprint "FPGA_Board_BA_FalkoSchmidt:Conn_FX8C_80Pin_Header" locked (layer "B.Cu")
    (tedit 60F70983) (tstamp 201b034e-231c-471f-9baf-1516f81e87c1)
    (at 5.5 34 -90)
    (property "Sheetfile" "FPGA_Connectors.kicad_sch")
    (property "Sheetname" "Connectors")
    (path "/5a1de2a0-4d4f-4b12-aeea-4bf77723f311/1a371ddc-0d67-4ff6-93e5-e998e8bf62a9")
    (attr through_hole)
    (fp_text reference "J1" (at 0 5 90) (layer "B.SilkS")
      (effects (font (size 1 1) (thickness 0.15)) (justify mirror))
      (tstamp 5c343d26-ed8e-490a-8d30-233b0357ab90)
    )
    (fp_text value "Conn_left" (at 0 -5 90) (layer "B.Fab")
      (effects (font (size 1 1) (thickness 0.15)) (justify mirror))
      (tstamp 54cf52b9-252a-4424-b915-fb10ae191e56)
    )
    (fp_line (start 15.4 -4) (end 15.4 4) (layer "B.SilkS") (width 0.12) (tstamp 2848030c-86d0-44d1-ae56-61dbffab4021))
    (fp_line (start -15.4 4) (end 15.4 4) (layer "B.SilkS") (width 0.12) (tstamp 803b5e49-2134-454b-9d42-fd428eccfee8))
    (fp_line (start -15.4 -2.4) (end -15.4 4) (layer "B.SilkS") (width 0.12) (tstamp 83aa0894-c13d-4f56-8a7d-6f9df78c091d))
    (fp_line (start -13.8 -4) (end -15.4 -2.4) (layer "B.SilkS") (width 0.12) (tstamp c06a8493-9fee-4154-b14e-507f0082fd53))
    (fp_line (start -13.8 -4) (end 15.4 -4) (layer "B.SilkS") (width 0.12) (tstamp e3500e17-76eb-40ba-95c9-66a8cf97bf6f))
    (fp_line (start -12.15 -3.705) (end -12.15 3.705) (layer "B.CrtYd") (width 0.05) (tstamp 0918bc28-6869-441a-afaa-d3ac98cf7f3d))
    (fp_line (start -12.15 3.705) (end 12.15 3.705) (layer "B.CrtYd") (width 0.05) (tstamp 3ecd15c6-eeec-49f8-8b3b-132d7e0be642))
    (fp_line (start 12.15 3.705) (end 12.15 -3.705) (layer "B.CrtYd") (width 0.05) (tstamp af99ff1e-be8a-462a-bb6d-65b45fc4e54f))
    (fp_line (start -12.15 -3.705) (end 12.15 -3.705) (layer "B.CrtYd") (width 0.05) (tstamp dfdd7fe7-118e-419e-9f33-c3fcec0be263))
    (pad "" thru_hole circle locked (at -14.1 -1.5 270) (size 1.6 1.6) (drill 1.2) (layers *.Cu *.Mask) (tstamp 679f8b29-cb32-492b-ad94-19f11623cd1a))
    (pad "" thru_hole circle locked (at 14.1 -1.5 270) (size 1.2 1.2) (drill 0.8) (layers *.Cu *.Mask) (tstamp 9268d0cb-7748-4b6f-8284-92bbbf7c030f))
    (pad "1" smd rect locked (at -11.7 -2.225 270) (size 0.4 2.45) (layers "B.Cu" "B.Paste" "B.Mask")
      (net 1 "GND") (pinfunction "Pin_1") (pintype "passive") (tstamp 2e07d790-caf9-41a7-8c64-61bddd749f74))
    (pad "2" smd rect locked (at -11.7 2.225 270) (size 0.4 2.45) (layers "B.Cu" "B.Paste" "B.Mask")
      (net 1 "GND") (pinfunction "Pin_2") (pintype "passive") (tstamp cd4bbfd2-8d3c-4ba7-8179-78d50089698c))
    (pad "3" smd rect locked (at -11.1 -2.225 270) (size 0.4 2.45) (layers "B.Cu" "B.Paste" "B.Mask")
      (pinfunction "Pin_3") (pintype "passive+no_connect") (tstamp 146c5ee6-fe71-4536-aae6-4d6db4c53b80))
    (pad "4" smd rect locked (at -11.1 2.225 270) (size 0.4 2.45) (layers "B.Cu" "B.Paste" "B.Mask")
      (pinfunction "Pin_4") (pintype "passive+no_connect") (tstamp aa51d5f5-3f50-4158-befe-02c01985cae4))
    (pad "5" smd rect locked (at -10.5 -2.225 270) (size 0.4 2.45) (layers "B.Cu" "B.Paste" "B.Mask")
      (pinfunction "Pin_5") (pintype "passive+no_connect") (tstamp b6c0a4f6-b2eb-4d45-9eee-bc2385e37ad1))
    (pad "6" smd rect locked (at -10.5 2.225 270) (size 0.4 2.45) (layers "B.Cu" "B.Paste" "B.Mask")
      (pinfunction "Pin_6") (pintype "passive+no_connect") (tstamp 97cf9d53-09c9-45dc-94a6-1b26688be01e))
    (pad "7" smd rect locked (at -9.9 -2.225 270) (size 0.4 2.45) (layers "B.Cu" "B.Paste" "B.Mask")
      (pinfunction "Pin_7") (pintype "passive+no_connect") (tstamp 5ef9abf7-6a38-40d6-b220-cf9ab1bd81d3))
    (pad "8" smd rect locked (at -9.9 2.225 270) (size 0.4 2.45) (layers "B.Cu" "B.Paste" "B.Mask")
      (pinfunction "Pin_8") (pintype "passive+no_connect") (tstamp 00900e2e-c572-4370-a936-1ab276ba7d41))
    (pad "9" smd rect locked (at -9.3 -2.225 270) (size 0.4 2.45) (layers "B.Cu" "B.Paste" "B.Mask")
      (pinfunction "Pin_9") (pintype "passive+no_connect") (tstamp 87140524-aadd-461e-8bf0-4e16f42a0769))
    (pad "10" smd rect locked (at -9.3 2.225 270) (size 0.4 2.45) (layers "B.Cu" "B.Paste" "B.Mask")
      (pinfunction "Pin_10") (pintype "passive+no_connect") (tstamp 7ed55b98-d5d1-457d-b625-8eb4755c21d2))
    (pad "11" smd rect locked (at -8.7 -2.225 270) (size 0.4 2.45) (layers "B.Cu" "B.Paste" "B.Mask")
      (pinfunction "Pin_11") (pintype "passive+no_connect") (tstamp a18f2ea9-fbf9-41d2-b196-060cb1d96850))
    (pad "12" smd rect locked (at -8.7 2.225 270) (size 0.4 2.45) (layers "B.Cu" "B.Paste" "B.Mask")
      (pinfunction "Pin_12") (pintype "passive+no_connect") (tstamp e27817fd-d2a1-4f02-bca4-fcd78844f8a1))
    (pad "13" smd rect locked (at -8.1 -2.225 270) (size 0.4 2.45) (layers "B.Cu" "B.Paste" "B.Mask")
      (pinfunction "Pin_13") (pintype "passive+no_connect") (tstamp 8a113414-8b91-4cfc-96de-9e02ca958f8e))
    (pad "14" smd rect locked (at -8.1 2.225 270) (size 0.4 2.45) (layers "B.Cu" "B.Paste" "B.Mask")
      (pinfunction "Pin_14") (pintype "passive+no_connect") (tstamp ada5f985-01f6-4f7e-8162-ede73a97c479))
    (pad "15" smd rect locked (at -7.5 -2.225 270) (size 0.4 2.45) (layers "B.Cu" "B.Paste" "B.Mask")
      (pinfunction "Pin_15") (pintype "passive+no_connect") (tstamp 2bb3c1b4-3a86-4a66-a151-da1c1afa3e8c))
    (pad "16" smd rect locked (at -7.5 2.225 270) (size 0.4 2.45) (layers "B.Cu" "B.Paste" "B.Mask")
      (pinfunction "Pin_16") (pintype "passive+no_connect") (tstamp 8fa03642-1f67-4a50-ad2e-1dd0970378ed))
    (pad "17" smd rect locked (at -6.9 -2.225 270) (size 0.4 2.45) (layers "B.Cu" "B.Paste" "B.Mask")
      (pinfunction "Pin_17") (pintype "passive+no_connect") (tstamp 6a83a05f-6cc2-4f5e-be7c-f7ddccb876df))
    (pad "18" smd rect locked (at -6.9 2.225 270) (size 0.4 2.45) (layers "B.Cu" "B.Paste" "B.Mask")
      (pinfunction "Pin_18") (pintype "passive+no_connect") (tstamp cf1a972c-747c-49c5-b9ca-3fc34a4ac495))
    (pad "19" smd rect locked (at -6.3 -2.225 270) (size 0.4 2.45) (layers "B.Cu" "B.Paste" "B.Mask")
      (pinfunction "Pin_19") (pintype "passive+no_connect") (tstamp 0cf20371-6d9c-4cfe-93a5-ea94304c104c))
    (pad "20" smd rect locked (at -6.3 2.225 270) (size 0.4 2.45) (layers "B.Cu" "B.Paste" "B.Mask")
      (pinfunction "Pin_20") (pintype "passive+no_connect") (tstamp 0dc4e2e9-d144-4b4b-b42e-049a7f56047f))
    (pad "21" smd rect locked (at -5.7 -2.225 270) (size 0.4 2.45) (layers "B.Cu" "B.Paste" "B.Mask")
      (pinfunction "Pin_21") (pintype "passive+no_connect") (tstamp dac3379e-ee2f-4bd5-b607-9565fb5f2374))
    (pad "22" smd rect locked (at -5.7 2.225 270) (size 0.4 2.45) (layers "B.Cu" "B.Paste" "B.Mask")
      (pinfunction "Pin_22") (pintype "passive+no_connect") (tstamp 35dee499-be60-4e6b-a773-d546cad3626b))
    (pad "23" smd rect locked (at -5.1 -2.225 270) (size 0.4 2.45) (layers "B.Cu" "B.Paste" "B.Mask")
      (pinfunction "Pin_23") (pintype "passive+no_connect") (tstamp c6b94d47-de2e-4d3f-97bc-e18b3d1bf3ee))
    (pad "24" smd rect locked (at -5.1 2.225 270) (size 0.4 2.45) (layers "B.Cu" "B.Paste" "B.Mask")
      (pinfunction "Pin_24") (pintype "passive+no_connect") (tstamp de3cebc4-41d3-4788-aa62-ea810ac51aef))
    (pad "25" smd rect locked (at -4.5 -2.225 270) (size 0.4 2.45) (layers "B.Cu" "B.Paste" "B.Mask")
      (pinfunction "Pin_25") (pintype "passive+no_connect") (tstamp a71ba9ef-fce0-41f0-9fb0-ae8d275d7176))
    (pad "26" smd rect locked (at -4.5 2.225 270) (size 0.4 2.45) (layers "B.Cu" "B.Paste" "B.Mask")
      (pinfunction "Pin_26") (pintype "passive+no_connect") (tstamp 27da1802-cb2c-426b-8799-b3ee9966f5b4))
    (pad "27" smd rect locked (at -3.9 -2.225 270) (size 0.4 2.45) (layers "B.Cu" "B.Paste" "B.Mask")
      (pinfunction "Pin_27") (pintype "passive+no_connect") (tstamp adfe4d80-957b-436f-bb83-326a21f17bb3))
    (pad "28" smd rect locked (at -3.9 2.225 270) (size 0.4 2.45) (layers "B.Cu" "B.Paste" "B.Mask")
      (pinfunction "Pin_28") (pintype "passive+no_connect") (tstamp 1f4e025b-3e54-46f5-95fc-202e01990d8e))
    (pad "29" smd rect locked (at -3.3 -2.225 270) (size 0.4 2.45) (layers "B.Cu" "B.Paste" "B.Mask")
      (pinfunction "Pin_29") (pintype "passive+no_connect") (tstamp dc77bfb2-b8a5-478e-9d6b-e27a5fa02a57))
    (pad "30" smd rect locked (at -3.3 2.225 270) (size 0.4 2.45) (layers "B.Cu" "B.Paste" "B.Mask")
      (pinfunction "Pin_30") (pintype "passive+no_connect") (tstamp 0e7c43b9-fe1b-4db8-be5a-e57c4cd43816))
    (pad "31" smd rect locked (at -2.7 -2.225 270) (size 0.4 2.45) (layers "B.Cu" "B.Paste" "B.Mask")
      (pinfunction "Pin_31") (pintype "passive+no_connect") (tstamp 7f7a6d07-52bb-4ecb-981c-4b776fad0d40))
    (pad "32" smd rect locked (at -2.7 2.225 270) (size 0.4 2.45) (layers "B.Cu" "B.Paste" "B.Mask")
      (pinfunction "Pin_32") (pintype "passive+no_connect") (tstamp dbd4ba3b-358f-416b-9f44-2c7db346d5ac))
    (pad "33" smd rect locked (at -2.1 -2.225 270) (size 0.4 2.45) (layers "B.Cu" "B.Paste" "B.Mask")
      (pinfunction "Pin_33") (pintype "passive+no_connect") (tstamp cf52b935-2979-4959-8370-ec9ab5837a34))
    (pad "34" smd rect locked (at -2.1 2.225 270) (size 0.4 2.45) (layers "B.Cu" "B.Paste" "B.Mask")
      (pinfunction "Pin_34") (pintype "passive+no_connect") (tstamp 0dca695b-931b-4027-a38b-cd4aed878a0f))
    (pad "35" smd rect locked (at -1.5 -2.225 270) (size 0.4 2.45) (layers "B.Cu" "B.Paste" "B.Mask")
      (pinfunction "Pin_35") (pintype "passive+no_connect") (tstamp 19b62a65-48a4-4b51-ada5-de43e55b2fdf))
    (pad "36" smd rect locked (at -1.5 2.225 270) (size 0.4 2.45) (layers "B.Cu" "B.Paste" "B.Mask")
      (pinfunction "Pin_36") (pintype "passive+no_connect") (tstamp c932d3ab-6536-4828-82c7-58e142c20d2b))
    (pad "37" smd rect locked (at -0.9 -2.225 270) (size 0.4 2.45) (layers "B.Cu" "B.Paste" "B.Mask")
      (pinfunction "Pin_37") (pintype "passive+no_connect") (tstamp e6e58231-9162-4887-9841-3cfa82363341))
    (pad "38" smd rect locked (at -0.9 2.225 270) (size 0.4 2.45) (layers "B.Cu" "B.Paste" "B.Mask")
      (pinfunction "Pin_38") (pintype "passive+no_connect") (tstamp e6d32d2a-24c4-4e7e-aac2-9e39f434ff09))
    (pad "39" smd rect locked (at -0.3 -2.225 270) (size 0.4 2.45) (layers "B.Cu" "B.Paste" "B.Mask")
      (pinfunction "Pin_39") (pintype "passive+no_connect") (tstamp bf5a26ec-acbd-4b34-9c9d-19f3634e23c4))
    (pad "40" smd rect locked (at -0.3 2.225 270) (size 0.4 2.45) (layers "B.Cu" "B.Paste" "B.Mask")
      (pinfunction "Pin_40") (pintype "passive+no_connect") (tstamp 309974c9-f8a9-4c0a-9050-42c01c37bef3))
    (pad "41" smd rect locked (at 0.3 -2.225 270) (size 0.4 2.45) (layers "B.Cu" "B.Paste" "B.Mask")
      (pinfunction "Pin_41") (pintype "passive+no_connect") (tstamp 9b0765a0-abc2-45cb-8dfb-1849d9641cff))
    (pad "42" smd rect locked (at 0.3 2.225 270) (size 0.4 2.45) (layers "B.Cu" "B.Paste" "B.Mask")
      (pinfunction "Pin_42") (pintype "passive+no_connect") (tstamp e1af79bb-bd2a-4ed6-9c8f-d61ac80e8032))
    (pad "43" smd rect locked (at 0.9 -2.225 270) (size 0.4 2.45) (layers "B.Cu" "B.Paste" "B.Mask")
      (pinfunction "Pin_43") (pintype "passive+no_connect") (tstamp cc208bf1-247c-4268-9681-806df9654026))
    (pad "44" smd rect locked (at 0.9 2.225 270) (size 0.4 2.45) (layers "B.Cu" "B.Paste" "B.Mask")
      (pinfunction "Pin_44") (pintype "passive+no_connect") (tstamp 7223e5c3-2731-4eb7-9770-192cd5e160d5))
    (pad "45" smd rect locked (at 1.5 -2.225 270) (size 0.4 2.45) (layers "B.Cu" "B.Paste" "B.Mask")
      (pinfunction "Pin_45") (pintype "passive+no_connect") (tstamp 45586458-5150-456d-bfb9-d71f210c7805))
    (pad "46" smd rect locked (at 1.5 2.225 270) (size 0.4 2.45) (layers "B.Cu" "B.Paste" "B.Mask")
      (pinfunction "Pin_46") (pintype "passive+no_connect") (tstamp c72cc254-ef46-4756-8b37-1bdd0cebd1da))
    (pad "47" smd rect locked (at 2.1 -2.225 270) (size 0.4 2.45) (layers "B.Cu" "B.Paste" "B.Mask")
      (pinfunction "Pin_47") (pintype "passive+no_connect") (tstamp 85be6ae1-022b-4143-b042-829980edd166))
    (pad "48" smd rect locked (at 2.1 2.225 270) (size 0.4 2.45) (layers "B.Cu" "B.Paste" "B.Mask")
      (pinfunction "Pin_48") (pintype "passive+no_connect") (tstamp 167caf87-6ba0-43ba-bd9d-eb8c6c04af70))
    (pad "49" smd rect locked (at 2.7 -2.225 270) (size 0.4 2.45) (layers "B.Cu" "B.Paste" "B.Mask")
      (pinfunction "Pin_49") (pintype "passive+no_connect") (tstamp 595398ca-6c67-4986-bb13-ae9838e2d768))
    (pad "50" smd rect locked (at 2.7 2.225 270) (size 0.4 2.45) (layers "B.Cu" "B.Paste" "B.Mask")
      (pinfunction "Pin_50") (pintype "passive+no_connect") (tstamp cac1adce-ef54-4397-abc4-f9578a9eefb5))
    (pad "51" smd rect locked (at 3.3 -2.225 270) (size 0.4 2.45) (layers "B.Cu" "B.Paste" "B.Mask")
      (pinfunction "Pin_51") (pintype "passive+no_connect") (tstamp 9ffd9ee6-b3c1-4cec-b6dd-929c6a20ecd1))
    (pad "52" smd rect locked (at 3.3 2.225 270) (size 0.4 2.45) (layers "B.Cu" "B.Paste" "B.Mask")
      (pinfunction "Pin_52") (pintype "passive+no_connect") (tstamp d6430dcd-f9b2-4e1b-9e56-4d5b02ea1f6c))
    (pad "53" smd rect locked (at 3.9 -2.225 270) (size 0.4 2.45) (layers "B.Cu" "B.Paste" "B.Mask")
      (pinfunction "Pin_53") (pintype "passive+no_connect") (tstamp a0521430-1ac3-4f37-9b15-e58f197bbc60))
    (pad "54" smd rect locked (at 3.9 2.225 270) (size 0.4 2.45) (layers "B.Cu" "B.Paste" "B.Mask")
      (pinfunction "Pin_54") (pintype "passive+no_connect") (tstamp 45b4af91-0628-4107-b82e-8305e2d2423c))
    (pad "55" smd rect locked (at 4.5 -2.225 270) (size 0.4 2.45) (layers "B.Cu" "B.Paste" "B.Mask")
      (pinfunction "Pin_55") (pintype "passive+no_connect") (tstamp 4184c430-a441-4733-9b3f-e43843dfc41d))
    (pad "56" smd rect locked (at 4.5 2.225 270) (size 0.4 2.45) (layers "B.Cu" "B.Paste" "B.Mask")
      (pinfunction "Pin_56") (pintype "passive+no_connect") (tstamp 111ec95b-e7be-458d-ba1a-280d6517ae38))
    (pad "57" smd rect locked (at 5.1 -2.225 270) (size 0.4 2.45) (layers "B.Cu" "B.Paste" "B.Mask")
      (pinfunction "Pin_57") (pintype "passive+no_connect") (tstamp f5d1db74-2a6e-4034-ac20-115078230c8d))
    (pad "58" smd rect locked (at 5.1 2.225 270) (size 0.4 2.45) (layers "B.Cu" "B.Paste" "B.Mask")
      (pinfunction "Pin_58") (pintype "passive+no_connect") (tstamp b535fe62-3324-4dcc-a5a0-24396fb8ecaa))
    (pad "59" smd rect locked (at 5.7 -2.225 270) (size 0.4 2.45) (layers "B.Cu" "B.Paste" "B.Mask")
      (pinfunction "Pin_59") (pintype "passive+no_connect") (tstamp 43dff69d-9ef0-4612-a8ef-06819cbdfac4))
    (pad "60" smd rect locked (at 5.7 2.225 270) (size 0.4 2.45) (layers "B.Cu" "B.Paste" "B.Mask")
      (pinfunction "Pin_60") (pintype "passive+no_connect") (tstamp 4001f4fb-343c-4586-8a0c-67c2e5ee8560))
    (pad "61" smd rect locked (at 6.3 -2.225 270) (size 0.4 2.45) (layers "B.Cu" "B.Paste" "B.Mask")
      (pinfunction "Pin_61") (pintype "passive+no_connect") (tstamp 75ea57c4-1b2b-4b22-929d-b5c349529ce0))
    (pad "62" smd rect locked (at 6.3 2.225 270) (size 0.4 2.45) (layers "B.Cu" "B.Paste" "B.Mask")
      (pinfunction "Pin_62") (pintype "passive+no_connect") (tstamp 61ba30ee-97b4-4a9a-bbf5-210140ec9d4f))
    (pad "63" smd rect locked (at 6.9 -2.225 270) (size 0.4 2.45) (layers "B.Cu" "B.Paste" "B.Mask")
      (pinfunction "Pin_63") (pintype "passive+no_connect") (tstamp 8bba6d99-4c53-47b3-82fb-70ba7d0f1a58))
    (pad "64" smd rect locked (at 6.9 2.225 270) (size 0.4 2.45) (layers "B.Cu" "B.Paste" "B.Mask")
      (pinfunction "Pin_64") (pintype "passive+no_connect") (tstamp d8fc4800-e93d-4bdf-8664-ac7ebcd9571c))
    (pad "65" smd rect locked (at 7.5 -2.225 270) (size 0.4 2.45) (layers "B.Cu" "B.Paste" "B.Mask")
      (pinfunction "Pin_65") (pintype "passive+no_connect") (tstamp 68e854ab-5282-44e0-9216-587dacb37974))
    (pad "66" smd rect locked (at 7.5 2.225 270) (size 0.4 2.45) (layers "B.Cu" "B.Paste" "B.Mask")
      (pinfunction "Pin_66") (pintype "passive+no_connect") (tstamp ce3c2b6c-d838-42e9-84ce-c6d253c6d85f))
    (pad "67" smd rect locked (at 8.1 -2.225 270) (size 0.4 2.45) (layers "B.Cu" "B.Paste" "B.Mask")
      (pinfunction "Pin_67") (pintype "passive+no_connect") (tstamp 163b9aba-d86e-410b-9930-786ea24f967b))
    (pad "68" smd rect locked (at 8.1 2.225 270) (size 0.4 2.45) (layers "B.Cu" "B.Paste" "B.Mask")
      (pinfunction "Pin_68") (pintype "passive+no_connect") (tstamp a78b2b37-36d9-489f-9b33-64fdb9e5052e))
    (pad "69" smd rect locked (at 8.7 -2.225 270) (size 0.4 2.45) (layers "B.Cu" "B.Paste" "B.Mask")
      (pinfunction "Pin_69") (pintype "passive+no_connect") (tstamp cbb61f5b-94ed-4af2-a753-8f947d35dcda))
    (pad "70" smd rect locked (at 8.7 2.225 270) (size 0.4 2.45) (layers "B.Cu" "B.Paste" "B.Mask")
      (pinfunction "Pin_70") (pintype "passive+no_connect") (tstamp fdbe5747-c171-4969-a9da-9038ac0a0eaa))
    (pad "71" smd rect locked (at 9.3 -2.225 270) (size 0.4 2.45) (layers "B.Cu" "B.Paste" "B.Mask")
      (net 1 "GND") (pinfunction "Pin_71") (pintype "passive") (tstamp 2348b314-a809-4ec9-9e91-485e377f7d65))
    (pad "72" smd rect locked (at 9.3 2.225 270) (size 0.4 2.45) (layers "B.Cu" "B.Paste" "B.Mask")
      (net 1 "GND") (pinfunction "Pin_72") (pintype "passive") (tstamp 791a245c-4fa1-41ef-b9ed-5b6e548c8200))
    (pad "73" smd rect locked (at 9.9 -2.225 270) (size 0.4 2.45) (layers "B.Cu" "B.Paste" "B.Mask")
      (pinfunction "Pin_73") (pintype "passive") (tstamp 38f9823e-731e-44ae-8ea8-b9beec569977))
    (pad "74" smd rect locked (at 9.9 2.225 270) (size 0.4 2.45) (layers "B.Cu" "B.Paste" "B.Mask")
      (pinfunction "Pin_74") (pintype "passive") (tstamp e8c59476-c71c-4d39-a520-43c9f2526654))
    (pad "75" smd rect locked (at 10.5 -2.225 270) (size 0.4 2.45) (layers "B.Cu" "B.Paste" "B.Mask")
      (net 1 "GND") (pinfunction "Pin_75") (pintype "passive") (tstamp 4b8cff02-d0f0-42d0-99b1-3c0de001270b))
    (pad "76" smd rect locked (at 10.5 2.225 270) (size 0.4 2.45) (layers "B.Cu" "B.Paste" "B.Mask")
      (net 1 "GND") (pinfunction "Pin_76") (pintype "passive") (tstamp 23b02f4a-b732-4dbf-87de-84aa5d28954b))
    (pad "77" smd rect locked (at 11.1 -2.225 270) (size 0.4 2.45) (layers "B.Cu" "B.Paste" "B.Mask")
      (net 2 "SPI_MOSI") (pinfunction "Pin_77") (pintype "passive") (tstamp 297728db-7a8f-4c33-aeec-f17c0af92703))
    (pad "78" smd rect locked (at 11.1 2.225 270) (size 0.4 2.45) (layers "B.Cu" "B.Paste" "B.Mask")
      (net 4 "SPI_SCK") (pinfunction "Pin_78") (pintype "passive") (tstamp 752edb0b-ef5b-45d0-bcd9-fc7444f8a5b7))
    (pad "79" smd rect locked (at 11.7 -2.225 270) (size 0.4 2.45) (layers "B.Cu" "B.Paste" "B.Mask")
      (net 3 "SPI_MISO") (pinfunction "Pin_79") (pintype "passive") (tstamp e4fb2def-75f3-48ea-8865-2a675cffddee))
    (pad "80" smd rect locked (at 11.7 2.225 270) (size 0.4 2.45) (layers "B.Cu" "B.Paste" "B.Mask")
      (pinfunction "Pin_80") (pintype "passive") (tstamp 79cc4748-a33c-4d9f-86e9-56e7d240e540))
  )

  (footprint "FPGA_Board_BA_FalkoSchmidt:SAMTEC_UMPS-03-03.5-G-VT-SM-WT-K" locked (layer "B.Cu")
    (tedit 60FFBB59) (tstamp 3120ddac-fae0-45fc-8093-6ef953a310d2)
    (at 14 5 180)
    (property "Sheetfile" "FPGA_Voltage_Supply.kicad_sch")
    (property "Sheetname" "Voltage_Supply")
    (path "/b5571987-9eed-4b3c-ac65-87cd88ac8057/597958fa-1ebc-4c22-bb87-f6ab7f7613b0")
    (fp_text reference "J5" (at -2.54 5.08) (layer "B.SilkS")
      (effects (font (size 1 1) (thickness 0.15)) (justify mirror))
      (tstamp b6e3de37-4351-42f0-a177-cc92329fea4d)
    )
    (fp_text value "Power_IN" (at 0.5 -4) (layer "B.Fab")
      (effects (font (size 1 1) (thickness 0.15)) (justify mirror))
      (tstamp e9a01466-66e6-4021-9b3f-e435b722e997)
    )
    (fp_poly (pts (xy -5.95 0.15)
      (xy -3.5 0.15)
      (xy -3.5 -2.13)
      (xy -5.95 -2.13)) (layer "B.Paste") (width 0.01) (fill solid) (tstamp 11fa6a6e-75e2-44cd-a203-eb7aed442ac7))
    (fp_poly (pts (xy 3.5 -0.35)
      (xy 5.95 -0.35)
      (xy 5.95 -2.63)
      (xy 3.5 -2.63)) (layer "B.Paste") (width 0.01) (fill solid) (tstamp 5a09b8e4-26c0-4311-836e-c362c2c9860b))
    (fp_poly (pts (xy -5.95 3.13)
      (xy -3.5 3.13)
      (xy -3.5 0.85)
      (xy -5.95 0.85)) (layer "B.Paste") (width 0.01) (fill solid) (tstamp 610b93f0-0042-407f-a23b-64716692046a))
    (fp_poly (pts (xy 3.5 2.63)
      (xy 5.95 2.63)
      (xy 5.95 0.35)
      (xy 3.5 0.35)) (layer "B.Paste") (width 0.01) (fill solid) (tstamp 893eee9d-8d46-482e-b626-f4ac5dbdb659))
    (fp_line (start -3.1 3.1) (end 3.1 3.1) (layer "B.SilkS") (width 0.2) (tstamp 37b9e953-284f-4864-af3c-2c1acc8f9b52))
    (fp_line (start 4.825 -3.1) (end -4.825 -3.1) (layer "B.SilkS") (width 0.2) (tstamp f55a2eaf-b847-4da8-a870-33983bf98f4f))
    (fp_circle (center -2 -3.81) (end -1.9 -3.81) (layer "B.SilkS") (width 0.2) (fill none) (tstamp 1e4f4e79-5d72-4de6-9065-570785a869e4))
    (fp_line (start -6.2 -3.35) (end -6.2 3.35) (layer "B.CrtYd") (width 0.05) (tstamp 63f7bd93-377d-4c53-a3d6-58d55da10e6b))
    (fp_line (start -6.2 3.35) (end 6.2 3.35) (layer "B.CrtYd") (width 0.05) (tstamp a8325749-4b6f-435f-a429-7d963c1a9e6d))
    (fp_line (start 6.2 3.35) (end 6.2 -3.35) (layer "B.CrtYd") (width 0.05) (tstamp b79fb62c-2e60-4209-9aa8-7456847a5747))
    (fp_line (start 6.2 -3.35) (end -6.2 -3.35) (layer "B.CrtYd") (width 0.05) (tstamp ebe539c8-bfa3-4218-89b0-444f445ea114))
    (fp_line (start -5.525 2.4) (end -5.525 3.1) (layer "B.Fab") (width 0.1) (tstamp 3208b239-b8ac-47ab-9c26-8182d6659b2c))
    (fp_line (start 5.525 3.1) (end 5.525 2.4) (layer "B.Fab") (width 0.1) (tstamp 4a2b3b7b-d4a3-4197-89b9-068476cc416b))
    (fp_line (start 4.825 -3.1) (end -4.825 -3.1) (layer "B.Fab") (width 0.1) (tstamp 8d3e62ea-4efd-40ba-a28c-bc6814f9ed50))
    (fp_line (start 4.825 2.4) (end 4.825 -3.1) (layer "B.Fab") (width 0.1) (tstamp be712b0d-3c35-4d6c-923c-730896e97985))
    (fp_line (start -4.825 -3.1) (end -4.825 2.4) (layer "B.Fab") (width 0.1) (tstamp c40d6aa5-999a-4448-89b6-de7b47d9363e))
    (fp_line (start 5.525 2.4) (end 4.825 2.4) (layer "B.Fab") (width 0.1) (tstamp c927fc34-a096-43ee-9503-e7efe00f5680))
    (fp_line (start -5.525 3.1) (end 5.525 3.1) (layer "B.Fab") (width 0.1) (tstamp c9475c14-6cf2-4683-91f9-754b0510ac59))
    (fp_line (start -4.825 2.4) (end -5.525 2.4) (layer "B.Fab") (width 0.1) (tstamp cbf522dd-eeea-4a47-a99f-30f1ab474b76))
    (fp_circle (center -2 -3.81) (end -1.9 -3.81) (layer "B.Fab") (width 0.2) (fill none) (tstamp a419d359-a38a-49cd-9ab3-a7608a1cdcbb))
    (pad "1" smd rect locked (at -2 0 180) (size 1.3 3.5) (layers "B.Cu" "B.Paste" "B.Mask")
      (net 6 "V_CONN_Pin1") (pinfunction "Pin_1") (pintype "passive") (tstamp 1932ce8b-fc26-4154-ba93-a29ded0acb42))
    (pad "2" smd rect locked (at 0 0 180) (size 1.3 3.5) (layers "B.Cu" "B.Paste" "B.Mask")
      (net 1 "GND") (pinfunction "Pin_2") (pintype "passive") (tstamp 081f0aa4-2770-47e9-b084-169f4fa7c0fb))
    (pad "3" smd rect locked (at 2 0 180) (size 1.3 3.5) (layers "B.Cu" "B.Paste" "B.Mask")
      (net 5 "V_CONN") (pinfunction "Pin_3") (pintype "passive") (tstamp d356cef4-220f-4a0c-a0f5-9163f31ded37))
    (pad "S1" thru_hole circle locked (at -4 1.5 180) (size 1.308 1.308) (drill 0.8) (layers *.Cu *.Mask) (tstamp 9d4b9a57-9df1-4491-aae6-709ae3dcac39))
    (pad "S2" thru_hole circle locked (at -4 -0.5 180) (size 1.308 1.308) (drill 0.8) (layers *.Cu *.Mask) (tstamp 160cfd8c-d216-4aa9-a0b6-690a4b17afb3))
    (pad "S3" thru_hole circle locked (at 4 1 180) (size 1.308 1.308) (drill 0.8) (layers *.Cu *.Mask) (tstamp 045594a4-7056-47b0-b750-c47450dffeb0))
    (pad "S4" thru_hole circle locked (at 4 -1 180) (size 1.308 1.308) (drill 0.8) (layers *.Cu *.Mask) (tstamp 3321e3ea-b676-4fa3-9f79-3ff8a1f1b4d6))
  )

  (footprint "FPGA_Board_BA_FalkoSchmidt:Conn_FX8C_80Pin_Header" locked (layer "B.Cu")
    (tedit 60F70983) (tstamp 777aa51d-1fb3-4f34-ad84-4cc3db74b327)
    (at 74.5 34 -90)
    (property "Sheetfile" "FPGA_Connectors.kicad_sch")
    (property "Sheetname" "Connectors")
    (path "/5a1de2a0-4d4f-4b12-aeea-4bf77723f311/dede742c-afee-4e90-8ea3-010988541e65")
    (attr through_hole)
    (fp_text reference "J2" (at 0 5 90) (layer "B.SilkS")
      (effects (font (size 1 1) (thickness 0.15)) (justify mirror))
      (tstamp a5aa0a26-c2da-4742-8d0a-4f286c96c654)
    )
    (fp_text value "Conn_right" (at 0 -5 90) (layer "B.Fab")
      (effects (font (size 1 1) (thickness 0.15)) (justify mirror))
      (tstamp 530972b0-a214-431e-abda-e7d80bbef411)
    )
    (fp_line (start -13.8 -4) (end 15.4 -4) (layer "B.SilkS") (width 0.12) (tstamp 22599800-63fd-4053-99a1-27ddbd8d7135))
    (fp_line (start -15.4 4) (end 15.4 4) (layer "B.SilkS") (width 0.12) (tstamp 65beba60-4719-41ff-8fff-cdded198631f))
    (fp_line (start 15.4 -4) (end 15.4 4) (layer "B.SilkS") (width 0.12) (tstamp b334cc8b-8991-4652-8621-b6595833b443))
    (fp_line (start -15.4 -2.4) (end -15.4 4) (layer "B.SilkS") (width 0.12) (tstamp b894476d-317c-4fe1-abe1-cfa2bf95e581))
    (fp_line (start -13.8 -4) (end -15.4 -2.4) (layer "B.SilkS") (width 0.12) (tstamp d12933d2-60b4-4db2-a1b7-cedfe15d72f8))
    (fp_line (start 12.15 3.705) (end 12.15 -3.705) (layer "B.CrtYd") (width 0.05) (tstamp 557789a2-e771-490c-8bd7-c4ad58868054))
    (fp_line (start -12.15 -3.705) (end -12.15 3.705) (layer "B.CrtYd") (width 0.05) (tstamp 5cdc40dd-777e-428c-a015-db0334ea71e7))
    (fp_line (start -12.15 3.705) (end 12.15 3.705) (layer "B.CrtYd") (width 0.05) (tstamp ab1c37a0-34ea-4f4b-9c2e-13a160a0beae))
    (fp_line (start -12.15 -3.705) (end 12.15 -3.705) (layer "B.CrtYd") (width 0.05) (tstamp edd08380-94b7-46b9-8d74-5dbf1c518100))
    (pad "" thru_hole circle locked (at -14.1 -1.5 270) (size 1.6 1.6) (drill 1.2) (layers *.Cu *.Mask) (tstamp 83b0869f-e765-4396-ab8a-9a6ba739bb62))
    (pad "" thru_hole circle locked (at 14.1 -1.5 270) (size 1.2 1.2) (drill 0.8) (layers *.Cu *.Mask) (tstamp c3c3e757-cbbd-4b5c-b016-dcaa257285ea))
    (pad "1" smd rect locked (at -11.7 -2.225 270) (size 0.4 2.45) (layers "B.Cu" "B.Paste" "B.Mask")
      (net 1 "GND") (pinfunction "Pin_1") (pintype "passive") (tstamp b8b79cff-e150-4e10-a199-314352c042f5))
    (pad "2" smd rect locked (at -11.7 2.225 270) (size 0.4 2.45) (layers "B.Cu" "B.Paste" "B.Mask")
      (net 1 "GND") (pinfunction "Pin_2") (pintype "passive") (tstamp 8e68e88e-c1d4-45da-92b2-180f9074ce4f))
    (pad "3" smd rect locked (at -11.1 -2.225 270) (size 0.4 2.45) (layers "B.Cu" "B.Paste" "B.Mask")
      (pinfunction "Pin_3") (pintype "passive") (tstamp 2feffbba-9a72-482e-954e-2d368232b7dd))
    (pad "4" smd rect locked (at -11.1 2.225 270) (size 0.4 2.45) (layers "B.Cu" "B.Paste" "B.Mask")
      (pinfunction "Pin_4") (pintype "passive") (tstamp 3d56891b-96f7-44a7-99bc-fbc112b5408f))
    (pad "5" smd rect locked (at -10.5 -2.225 270) (size 0.4 2.45) (layers "B.Cu" "B.Paste" "B.Mask")
      (pinfunction "Pin_5") (pintype "passive") (tstamp 31cb3fcb-394d-45ca-b6df-c98d181bb0af))
    (pad "6" smd rect locked (at -10.5 2.225 270) (size 0.4 2.45) (layers "B.Cu" "B.Paste" "B.Mask")
      (pinfunction "Pin_6") (pintype "passive") (tstamp 7b82028b-576d-4397-b994-ca57ea3585c5))
    (pad "7" smd rect locked (at -9.9 -2.225 270) (size 0.4 2.45) (layers "B.Cu" "B.Paste" "B.Mask")
      (net 1 "GND") (pinfunction "Pin_7") (pintype "passive") (tstamp 12268cb5-4521-4341-addf-d2b1e3f87928))
    (pad "8" smd rect locked (at -9.9 2.225 270) (size 0.4 2.45) (layers "B.Cu" "B.Paste" "B.Mask")
      (net 1 "GND") (pinfunction "Pin_8") (pintype "passive") (tstamp 0587baea-6a4d-444b-99a7-9335fe7d79d7))
    (pad "9" smd rect locked (at -9.3 -2.225 270) (size 0.4 2.45) (layers "B.Cu" "B.Paste" "B.Mask")
      (pinfunction "Pin_9") (pintype "passive") (tstamp 4501687b-1944-473a-a9fa-558c503fc5a3))
    (pad "10" smd rect locked (at -9.3 2.225 270) (size 0.4 2.45) (layers "B.Cu" "B.Paste" "B.Mask")
      (pinfunction "Pin_10") (pintype "passive") (tstamp 78cfcbdb-92ae-4b17-b9c2-03a5dc119727))
    (pad "11" smd rect locked (at -8.7 -2.225 270) (size 0.4 2.45) (layers "B.Cu" "B.Paste" "B.Mask")
      (pinfunction "Pin_11") (pintype "passive") (tstamp df2e9e87-842c-4144-bece-70536533bcd2))
    (pad "12" smd rect locked (at -8.7 2.225 270) (size 0.4 2.45) (layers "B.Cu" "B.Paste" "B.Mask")
      (pinfunction "Pin_12") (pintype "passive") (tstamp 3138ddc2-eaff-4e87-b7db-24b733cf9932))
    (pad "13" smd rect locked (at -8.1 -2.225 270) (size 0.4 2.45) (layers "B.Cu" "B.Paste" "B.Mask")
      (net 1 "GND") (pinfunction "Pin_13") (pintype "passive") (tstamp e4fe42c0-1358-4415-9e27-f5a940151d57))
    (pad "14" smd rect locked (at -8.1 2.225 270) (size 0.4 2.45) (layers "B.Cu" "B.Paste" "B.Mask")
      (net 1 "GND") (pinfunction "Pin_14") (pintype "passive") (tstamp 35a9b30a-10ed-4593-8dc8-60992bde3fd2))
    (pad "15" smd rect locked (at -7.5 -2.225 270) (size 0.4 2.45) (layers "B.Cu" "B.Paste" "B.Mask")
      (pinfunction "Pin_15") (pintype "passive") (tstamp 8b5b801e-dbd7-4f04-8982-63fa4afa28ff))
    (pad "16" smd rect locked (at -7.5 2.225 270) (size 0.4 2.45) (layers "B.Cu" "B.Paste" "B.Mask")
      (pinfunction "Pin_16") (pintype "passive") (tstamp 92501665-e8a4-4ff7-a350-a4f83bb3553b))
    (pad "17" smd rect locked (at -6.9 -2.225 270) (size 0.4 2.45) (layers "B.Cu" "B.Paste" "B.Mask")
      (pinfunction "Pin_17") (pintype "passive") (tstamp e2ac0fcd-1272-463c-aee9-6398dcd23f25))
    (pad "18" smd rect locked (at -6.9 2.225 270) (size 0.4 2.45) (layers "B.Cu" "B.Paste" "B.Mask")
      (pinfunction "Pin_18") (pintype "passive") (tstamp ae27ef98-3ff6-4751-a211-e20784235ec1))
    (pad "19" smd rect locked (at -6.3 -2.225 270) (size 0.4 2.45) (layers "B.Cu" "B.Paste" "B.Mask")
      (net 1 "GND") (pinfunction "Pin_19") (pintype "passive") (tstamp b2650e31-45fb-449d-b620-ea5ec4bc5665))
    (pad "20" smd rect locked (at -6.3 2.225 270) (size 0.4 2.45) (layers "B.Cu" "B.Paste" "B.Mask")
      (net 1 "GND") (pinfunction "Pin_20") (pintype "passive") (tstamp 21d1b326-f5d5-4789-a206-bcd676dc1946))
    (pad "21" smd rect locked (at -5.7 -2.225 270) (size 0.4 2.45) (layers "B.Cu" "B.Paste" "B.Mask")
      (pinfunction "Pin_21") (pintype "passive") (tstamp c1778dc0-cbfa-4086-8520-8a502150bb44))
    (pad "22" smd rect locked (at -5.7 2.225 270) (size 0.4 2.45) (layers "B.Cu" "B.Paste" "B.Mask")
      (pinfunction "Pin_22") (pintype "passive") (tstamp 0de02ce2-01d7-461a-b080-3d5f623557b1))
    (pad "23" smd rect locked (at -5.1 -2.225 270) (size 0.4 2.45) (layers "B.Cu" "B.Paste" "B.Mask")
      (pinfunction "Pin_23") (pintype "passive") (tstamp 05d8044e-bd64-40f2-a28e-45bea605c86f))
    (pad "24" smd rect locked (at -5.1 2.225 270) (size 0.4 2.45) (layers "B.Cu" "B.Paste" "B.Mask")
      (pinfunction "Pin_24") (pintype "passive") (tstamp 213ebcdd-60f1-44d0-9c98-bca17adaa3b9))
    (pad "25" smd rect locked (at -4.5 -2.225 270) (size 0.4 2.45) (layers "B.Cu" "B.Paste" "B.Mask")
      (net 1 "GND") (pinfunction "Pin_25") (pintype "passive") (tstamp ea54ee48-8688-4d3c-9d13-b00d980096cb))
    (pad "26" smd rect locked (at -4.5 2.225 270) (size 0.4 2.45) (layers "B.Cu" "B.Paste" "B.Mask")
      (net 1 "GND") (pinfunction "Pin_26") (pintype "passive") (tstamp 3ece7a39-b096-474c-b4c6-f6cfde06b047))
    (pad "27" smd rect locked (at -3.9 -2.225 270) (size 0.4 2.45) (layers "B.Cu" "B.Paste" "B.Mask")
      (pinfunction "Pin_27") (pintype "passive") (tstamp 5bb0df8b-b3c7-4d4c-99d2-505c72b819d7))
    (pad "28" smd rect locked (at -3.9 2.225 270) (size 0.4 2.45) (layers "B.Cu" "B.Paste" "B.Mask")
      (pinfunction "Pin_28") (pintype "passive") (tstamp b582acc4-8726-4f85-8021-12a00e46ed18))
    (pad "29" smd rect locked (at -3.3 -2.225 270) (size 0.4 2.45) (layers "B.Cu" "B.Paste" "B.Mask")
      (pinfunction "Pin_29") (pintype "passive") (tstamp 7e7850ef-8ce2-47de-bf2f-d58a149644a0))
    (pad "30" smd rect locked (at -3.3 2.225 270) (size 0.4 2.45) (layers "B.Cu" "B.Paste" "B.Mask")
      (pinfunction "Pin_30") (pintype "passive") (tstamp 4696b330-9046-4a38-98bd-506dcdc2579f))
    (pad "31" smd rect locked (at -2.7 -2.225 270) (size 0.4 2.45) (layers "B.Cu" "B.Paste" "B.Mask")
      (net 1 "GND") (pinfunction "Pin_31") (pintype "passive") (tstamp b6bd8675-e637-4ec3-a6cc-d5c984e17be3))
    (pad "32" smd rect locked (at -2.7 2.225 270) (size 0.4 2.45) (layers "B.Cu" "B.Paste" "B.Mask")
      (net 1 "GND") (pinfunction "Pin_32") (pintype "passive") (tstamp f2ec9f8e-957e-4521-8573-80958e3c11e0))
    (pad "33" smd rect locked (at -2.1 -2.225 270) (size 0.4 2.45) (layers "B.Cu" "B.Paste" "B.Mask")
      (pinfunction "Pin_33") (pintype "passive") (tstamp a7c44950-be1a-4489-87d7-a08da30f42bb))
    (pad "34" smd rect locked (at -2.1 2.225 270) (size 0.4 2.45) (layers "B.Cu" "B.Paste" "B.Mask")
      (pinfunction "Pin_34") (pintype "passive") (tstamp 3aed5ece-53f7-4fa8-9840-d2e7cdd27b11))
    (pad "35" smd rect locked (at -1.5 -2.225 270) (size 0.4 2.45) (layers "B.Cu" "B.Paste" "B.Mask")
      (pinfunction "Pin_35") (pintype "passive") (tstamp 8cd508f9-022f-48a4-be2d-e203080a2f6a))
    (pad "36" smd rect locked (at -1.5 2.225 270) (size 0.4 2.45) (layers "B.Cu" "B.Paste" "B.Mask")
      (pinfunction "Pin_36") (pintype "passive") (tstamp 4d3aab58-cb33-4213-a5a3-b62de7d7c33d))
    (pad "37" smd rect locked (at -0.9 -2.225 270) (size 0.4 2.45) (layers "B.Cu" "B.Paste" "B.Mask")
      (net 1 "GND") (pinfunction "Pin_37") (pintype "passive") (tstamp 09ea89d3-ac5d-475b-b6de-3cf022f5e899))
    (pad "38" smd rect locked (at -0.9 2.225 270) (size 0.4 2.45) (layers "B.Cu" "B.Paste" "B.Mask")
      (net 1 "GND") (pinfunction "Pin_38") (pintype "passive") (tstamp e1fad0c2-76ef-476d-8e17-932aaf706ce2))
    (pad "39" smd rect locked (at -0.3 -2.225 270) (size 0.4 2.45) (layers "B.Cu" "B.Paste" "B.Mask")
      (pinfunction "Pin_39") (pintype "passive") (tstamp a353b760-29ab-4e2d-a557-1ee5f3dd1729))
    (pad "40" smd rect locked (at -0.3 2.225 270) (size 0.4 2.45) (layers "B.Cu" "B.Paste" "B.Mask")
      (pinfunction "Pin_40") (pintype "passive") (tstamp 6db83434-1aea-4aa5-9ebe-50735e538e8f))
    (pad "41" smd rect locked (at 0.3 -2.225 270) (size 0.4 2.45) (layers "B.Cu" "B.Paste" "B.Mask")
      (pinfunction "Pin_41") (pintype "passive") (tstamp 46ebba1d-7187-4e8e-a214-0212cabcdde9))
    (pad "42" smd rect locked (at 0.3 2.225 270) (size 0.4 2.45) (layers "B.Cu" "B.Paste" "B.Mask")
      (pinfunction "Pin_42") (pintype "passive") (tstamp 62f048dd-61e0-442b-9ba0-5bdb915a3968))
    (pad "43" smd rect locked (at 0.9 -2.225 270) (size 0.4 2.45) (layers "B.Cu" "B.Paste" "B.Mask")
      (net 1 "GND") (pinfunction "Pin_43") (pintype "passive") (tstamp 92b5e263-5821-4db4-86fe-3eb1e8d72611))
    (pad "44" smd rect locked (at 0.9 2.225 270) (size 0.4 2.45) (layers "B.Cu" "B.Paste" "B.Mask")
      (net 1 "GND") (pinfunction "Pin_44") (pintype "passive") (tstamp c7f857a6-9774-4bfe-94e6-a3c044438477))
    (pad "45" smd rect locked (at 1.5 -2.225 270) (size 0.4 2.45) (layers "B.Cu" "B.Paste" "B.Mask")
      (pinfunction "Pin_45") (pintype "passive") (tstamp 0c6bd107-9c2c-4953-9f2b-449fcdfd4b49))
    (pad "46" smd rect locked (at 1.5 2.225 270) (size 0.4 2.45) (layers "B.Cu" "B.Paste" "B.Mask")
      (pinfunction "Pin_46") (pintype "passive") (tstamp 90246553-eef8-4398-b931-3e6e20bdf792))
    (pad "47" smd rect locked (at 2.1 -2.225 270) (size 0.4 2.45) (layers "B.Cu" "B.Paste" "B.Mask")
      (pinfunction "Pin_47") (pintype "passive") (tstamp 1426a0dc-76ee-429f-b5ea-d04c0c76a759))
    (pad "48" smd rect locked (at 2.1 2.225 270) (size 0.4 2.45) (layers "B.Cu" "B.Paste" "B.Mask")
      (pinfunction "Pin_48") (pintype "passive") (tstamp ced4562d-a2dc-41b3-8355-c57b344c660b))
    (pad "49" smd rect locked (at 2.7 -2.225 270) (size 0.4 2.45) (layers "B.Cu" "B.Paste" "B.Mask")
      (net 1 "GND") (pinfunction "Pin_49") (pintype "passive") (tstamp b2c23dbd-0186-494f-8594-277732d374db))
    (pad "50" smd rect locked (at 2.7 2.225 270) (size 0.4 2.45) (layers "B.Cu" "B.Paste" "B.Mask")
      (net 1 "GND") (pinfunction "Pin_50") (pintype "passive") (tstamp f74cb5ca-2469-422b-832f-5b4016111fc5))
    (pad "51" smd rect locked (at 3.3 -2.225 270) (size 0.4 2.45) (layers "B.Cu" "B.Paste" "B.Mask")
      (pinfunction "Pin_51") (pintype "passive") (tstamp c473dcde-bd9c-4ef3-8193-be7ef75ddbda))
    (pad "52" smd rect locked (at 3.3 2.225 270) (size 0.4 2.45) (layers "B.Cu" "B.Paste" "B.Mask")
      (pinfunction "Pin_52") (pintype "passive") (tstamp dca99371-f5da-45b6-8e7f-b0f52215ca55))
    (pad "53" smd rect locked (at 3.9 -2.225 270) (size 0.4 2.45) (layers "B.Cu" "B.Paste" "B.Mask")
      (pinfunction "Pin_53") (pintype "passive") (tstamp aa3a142b-fb90-460f-9001-273ca6aded89))
    (pad "54" smd rect locked (at 3.9 2.225 270) (size 0.4 2.45) (layers "B.Cu" "B.Paste" "B.Mask")
      (pinfunction "Pin_54") (pintype "passive") (tstamp afad34be-c8bf-4a8e-bf3e-a8e2af1c3191))
    (pad "55" smd rect locked (at 4.5 -2.225 270) (size 0.4 2.45) (layers "B.Cu" "B.Paste" "B.Mask")
      (net 1 "GND") (pinfunction "Pin_55") (pintype "passive") (tstamp c9006537-002f-49fc-81b1-ea380d48950b))
    (pad "56" smd rect locked (at 4.5 2.225 270) (size 0.4 2.45) (layers "B.Cu" "B.Paste" "B.Mask")
      (net 1 "GND") (pinfunction "Pin_56") (pintype "passive") (tstamp 96293719-2128-414b-92b5-baf87628c612))
    (pad "57" smd rect locked (at 5.1 -2.225 270) (size 0.4 2.45) (layers "B.Cu" "B.Paste" "B.Mask")
      (pinfunction "Pin_57") (pintype "passive+no_connect") (tstamp 983b41a8-ceb6-4e6a-b58e-6bcb518f023e))
    (pad "58" smd rect locked (at 5.1 2.225 270) (size 0.4 2.45) (layers "B.Cu" "B.Paste" "B.Mask")
      (pinfunction "Pin_58") (pintype "passive+no_connect") (tstamp 250fe836-9e8c-406a-9041-8762bd0ded91))
    (pad "59" smd rect locked (at 5.7 -2.225 270) (size 0.4 2.45) (layers "B.Cu" "B.Paste" "B.Mask")
      (pinfunction "Pin_59") (pintype "passive+no_connect") (tstamp fd68c165-38df-41b5-9b80-7ff91387c779))
    (pad "60" smd rect locked (at 5.7 2.225 270) (size 0.4 2.45) (layers "B.Cu" "B.Paste" "B.Mask")
      (pinfunction "Pin_60") (pintype "passive+no_connect") (tstamp 9950bb93-646c-484c-bddd-2f751f780e04))
    (pad "61" smd rect locked (at 6.3 -2.225 270) (size 0.4 2.45) (layers "B.Cu" "B.Paste" "B.Mask")
      (net 1 "GND") (pinfunction "Pin_61") (pintype "passive") (tstamp 372ee9de-55e0-4a44-856f-6ca3d2a2a49a))
    (pad "62" smd rect locked (at 6.3 2.225 270) (size 0.4 2.45) (layers "B.Cu" "B.Paste" "B.Mask")
      (net 1 "GND") (pinfunction "Pin_62") (pintype "passive") (tstamp c0f091e2-8d9a-48e5-9b09-216aaae65ca8))
    (pad "63" smd rect locked (at 6.9 -2.225 270) (size 0.4 2.45) (layers "B.Cu" "B.Paste" "B.Mask")
      (pinfunction "Pin_63") (pintype "passive+no_connect") (tstamp 19af9879-fc48-4afe-a9d4-2758e859aa36))
    (pad "64" smd rect locked (at 6.9 2.225 270) (size 0.4 2.45) (layers "B.Cu" "B.Paste" "B.Mask")
      (pinfunction "Pin_64") (pintype "passive+no_connect") (tstamp 931194fe-d187-4d88-8110-285db90d1758))
    (pad "65" smd rect locked (at 7.5 -2.225 270) (size 0.4 2.45) (layers "B.Cu" "B.Paste" "B.Mask")
      (pinfunction "Pin_65") (pintype "passive+no_connect") (tstamp 19ee1a65-604d-4f80-bad0-a9a42227f805))
    (pad "66" smd rect locked (at 7.5 2.225 270) (size 0.4 2.45) (layers "B.Cu" "B.Paste" "B.Mask")
      (pinfunction "Pin_66") (pintype "passive+no_connect") (tstamp 5d1f3c31-1c44-4a08-aec6-9a8f4b4e4ab1))
    (pad "67" smd rect locked (at 8.1 -2.225 270) (size 0.4 2.45) (layers "B.Cu" "B.Paste" "B.Mask")
      (net 1 "GND") (pinfunction "Pin_67") (pintype "passive") (tstamp 2703e412-ee2b-4687-8149-3447a42d06af))
    (pad "68" smd rect locked (at 8.1 2.225 270) (size 0.4 2.45) (layers "B.Cu" "B.Paste" "B.Mask")
      (net 1 "GND") (pinfunction "Pin_68") (pintype "passive") (tstamp f9bca4b9-711a-49a9-8637-3b8263ad79ae))
    (pad "69" smd rect locked (at 8.7 -2.225 270) (size 0.4 2.45) (layers "B.Cu" "B.Paste" "B.Mask")
      (pinfunction "Pin_69") (pintype "passive+no_connect") (tstamp d4dc63c6-0b4b-435c-8749-8130f3a23ec0))
    (pad "70" smd rect locked (at 8.7 2.225 270) (size 0.4 2.45) (layers "B.Cu" "B.Paste" "B.Mask")
      (pinfunction "Pin_70") (pintype "passive+no_connect") (tstamp 0e894292-a71e-40c3-8e48-ea2b4d76776b))
    (pad "71" smd rect locked (at 9.3 -2.225 270) (size 0.4 2.45) (layers "B.Cu" "B.Paste" "B.Mask")
      (pinfunction "Pin_71") (pintype "passive+no_connect") (tstamp 8fa13083-70cb-4c68-84fa-29be5236d78b))
    (pad "72" smd rect locked (at 9.3 2.225 270) (size 0.4 2.45) (layers "B.Cu" "B.Paste" "B.Mask")
      (pinfunction "Pin_72") (pintype "passive+no_connect") (tstamp 0f83a120-64c3-42ad-9b61-635c12d3b83e))
    (pad "73" smd rect locked (at 9.9 -2.225 270) (size 0.4 2.45) (layers "B.Cu" "B.Paste" "B.Mask")
      (net 1 "GND") (pinfunction "Pin_73") (pintype "passive") (tstamp d3504e2e-ec33-407b-a68c-8f0258ca5e6f))
    (pad "74" smd rect locked (at 9.9 2.225 270) (size 0.4 2.45) (layers "B.Cu" "B.Paste" "B.Mask")
      (net 1 "GND") (pinfunction "Pin_74") (pintype "passive") (tstamp 4cf45033-a8d5-4a55-9eec-7250d044ada0))
    (pad "75" smd rect locked (at 10.5 -2.225 270) (size 0.4 2.45) (layers "B.Cu" "B.Paste" "B.Mask")
      (pinfunction "Pin_75") (pintype "passive") (tstamp e38bc5db-3ca2-4dc9-969f-49f5f7e670d7))
    (pad "76" smd rect locked (at 10.5 2.225 270) (size 0.4 2.45) (layers "B.Cu" "B.Paste" "B.Mask")
      (net 4 "SPI_SCK") (pinfunction "Pin_76") (pintype "passive") (tstamp 37dc262b-9406-4841-98a3-894cd0bef48d))
    (pad "77" smd rect locked (at 11.1 -2.225 270) (size 0.4 2.45) (layers "B.Cu" "B.Paste" "B.Mask")
      (net 2 "SPI_MOSI") (pinfunction "Pin_77") (pintype "passive") (tstamp c8e826ea-354c-4e81-a977-e444f938d94c))
    (pad "78" smd rect locked (at 11.1 2.225 270) (size 0.4 2.45) (layers "B.Cu" "B.Paste" "B.Mask")
      (pinfunction "Pin_78") (pintype "passive") (tstamp 6c3d0078-8ff9-48d8-9d0f-348c1aabe2c4))
    (pad "79" smd rect locked (at 11.7 -2.225 270) (size 0.4 2.45) (layers "B.Cu" "B.Paste" "B.Mask")
      (net 3 "SPI_MISO") (pinfunction "Pin_79") (pintype "passive") (tstamp 1fac2c20-950a-4635-abd8-f858ed18bf73))
    (pad "80" smd rect locked (at 11.7 2.225 270) (size 0.4 2.45) (layers "B.Cu" "B.Paste" "B.Mask")
      (pinfunction "Pin_80") (pintype "passive") (tstamp a1e98d88-315b-4d43-891f-ae4169dd0d27))
  )

  (footprint "FPGA_Board_BA_FalkoSchmidt:SAMTEC_UMPS-03-03.5-G-VT-SM-WT-K" locked (layer "B.Cu")
    (tedit 60FFBB59) (tstamp 8793adfb-b79a-4b57-91f4-3be2892a8089)
    (at 66 5 180)
    (property "Sheetfile" "FPGA_Voltage_Supply.kicad_sch")
    (property "Sheetname" "Voltage_Supply")
    (path "/b5571987-9eed-4b3c-ac65-87cd88ac8057/e3ceac2b-2d46-4275-8c73-9cd5486f5f07")
    (fp_text reference "J6" (at -2.54 5.08) (layer "B.SilkS")
      (effects (font (size 1 1) (thickness 0.15)) (justify mirror))
      (tstamp bae14753-46f7-43b8-921f-e44399fab5a7)
    )
    (fp_text value "Power_IN" (at 15.24 -5.08) (layer "B.Fab")
      (effects (font (size 1 1) (thickness 0.15)) (justify mirror))
      (tstamp 4a180019-d772-48ca-981b-03506908b129)
    )
    (fp_poly (pts (xy -5.95 3.13)
      (xy -3.5 3.13)
      (xy -3.5 0.85)
      (xy -5.95 0.85)) (layer "B.Paste") (width 0.01) (fill solid) (tstamp 2142bbc2-711c-41cb-86a4-1460742185ee))
    (fp_poly (pts (xy 3.5 2.63)
      (xy 5.95 2.63)
      (xy 5.95 0.35)
      (xy 3.5 0.35)) (layer "B.Paste") (width 0.01) (fill solid) (tstamp 7443244c-7cd2-4bd8-a039-4d572a86730d))
    (fp_poly (pts (xy -5.95 0.15)
      (xy -3.5 0.15)
      (xy -3.5 -2.13)
      (xy -5.95 -2.13)) (layer "B.Paste") (width 0.01) (fill solid) (tstamp d166c59c-5d0c-4db7-bd88-da79e259cace))
    (fp_poly (pts (xy 3.5 -0.35)
      (xy 5.95 -0.35)
      (xy 5.95 -2.63)
      (xy 3.5 -2.63)) (layer "B.Paste") (width 0.01) (fill solid) (tstamp e69929a5-1844-4c3d-8e50-8213397e9a32))
    (fp_line (start -3.1 3.1) (end 3.1 3.1) (layer "B.SilkS") (width 0.2) (tstamp 23dace65-c73e-4894-b337-d63a23c45f67))
    (fp_line (start 4.825 -3.1) (end -4.825 -3.1) (layer "B.SilkS") (width 0.2) (tstamp 4beea4b2-989a-4dd7-ba7e-d53a4f191d94))
    (fp_circle (center -2 -3.81) (end -1.9 -3.81) (layer "B.SilkS") (width 0.2) (fill none) (tstamp ae2ee0fb-578c-4b4e-8967-3d69ed4cffd7))
    (fp_line (start 6.2 3.35) (end 6.2 -3.35) (layer "B.CrtYd") (width 0.05) (tstamp 7cd82aee-7c14-47bf-8c4e-f2fab3734094))
    (fp_line (start -6.2 3.35) (end 6.2 3.35) (layer "B.CrtYd") (width 0.05) (tstamp 9b54d063-d55c-4410-bb2d-51370a2ab534))
    (fp_line (start 6.2 -3.35) (end -6.2 -3.35) (layer "B.CrtYd") (width 0.05) (tstamp a92bca40-cfaa-42e7-b0c1-a7f0b5f0e7f5))
    (fp_line (start -6.2 -3.35) (end -6.2 3.35) (layer "B.CrtYd") (width 0.05) (tstamp ba7640ec-98a3-480f-b8bc-42bc425630ce))
    (fp_line (start 4.825 2.4) (end 4.825 -3.1) (layer "B.Fab") (width 0.1) (tstamp 16c6799b-f88a-4f37-b097-e077f4b6e182))
    (fp_line (start 5.525 3.1) (end 5.525 2.4) (layer "B.Fab") (width 0.1) (tstamp 5ad31133-09f8-48fb-8496-8b494782247c))
    (fp_line (start -4.825 2.4) (end -5.525 2.4) (layer "B.Fab") (width 0.1) (tstamp 6bf60da1-0343-4ef6-9ba6-6e17dcef1bdf))
    (fp_line (start -4.825 -3.1) (end -4.825 2.4) (layer "B.Fab") (width 0.1) (tstamp 768a8f17-9a57-4748-a309-36d6c5ddbdd9))
    (fp_line (start -5.525 2.4) (end -5.525 3.1) (layer "B.Fab") (width 0.1) (tstamp a4a71ce2-1a12-467d-8cb0-b76faab0de75))
    (fp_line (start 4.825 -3.1) (end -4.825 -3.1) (layer "B.Fab") (width 0.1) (tstamp d9fa0ad0-bd45-4254-b7c0-3d1223ed4260))
    (fp_line (start 5.525 2.4) (end 4.825 2.4) (layer "B.Fab") (width 0.1) (tstamp e6d7e0a7-c6fa-416f-a029-54aeb75e838f))
    (fp_line (start -5.525 3.1) (end 5.525 3.1) (layer "B.Fab") (width 0.1) (tstamp f0542249-ceff-4fb0-be6c-425f995d1dd0))
    (fp_circle (center -2 -3.81) (end -1.9 -3.81) (layer "B.Fab") (width 0.2) (fill none) (tstamp c736383c-3067-40bc-9927-e28611934e5d))
    (pad "1" smd rect locked (at -2 0 180) (size 1.3 3.5) (layers "B.Cu" "B.Paste" "B.Mask")
      (net 6 "V_CONN_Pin1") (pinfunction "Pin_1") (pintype "passive") (tstamp f181b986-965c-493a-9600-944c90e8ff41))
    (pad "2" smd rect locked (at 0 0 180) (size 1.3 3.5) (layers "B.Cu" "B.Paste" "B.Mask")
      (net 1 "GND") (pinfunction "Pin_2") (pintype "passive") (tstamp fe69f148-b948-40b2-97e0-820d98efa66e))
    (pad "3" smd rect locked (at 2 0 180) (size 1.3 3.5) (layers "B.Cu" "B.Paste" "B.Mask")
      (net 5 "V_CONN") (pinfunction "Pin_3") (pintype "passive") (tstamp 2bf7a3d5-f5a2-4f3d-a5f9-26f8256ea394))
    (pad "S1" thru_hole circle locked (at -4 1.5 180) (size 1.308 1.308) (drill 0.8) (layers *.Cu *.Mask) (tstamp 806bb9ab-d3e9-4fa5-b8ed-56a04df4ea72))
    (pad "S2" thru_hole circle locked (at -4 -0.5 180) (size 1.308 1.308) (drill 0.8) (layers *.Cu *.Mask) (tstamp 1bbefb17-6dcc-452e-8d0b-21f5da27e0fc))
    (pad "S3" thru_hole circle locked (at 4 1 180) (size 1.308 1.308) (drill 0.8) (layers *.Cu *.Mask) (tstamp 8b40f841-5e8a-450f-8784-2cca5c5ed191))
    (pad "S4" thru_hole circle locked (at 4 -1 180) (size 1.308 1.308) (drill 0.8) (layers *.Cu *.Mask) (tstamp 3cf24f5f-8d75-4e01-acf4-0afed2312705))
  )

  (gr_rect locked (start 0 0) (end 80 70) (layer "Edge.Cuts") (width 0.1) (fill none) (tstamp 08e6c171-c119-4b08-99a6-ae20c7f9736d))
  (gr_circle locked (center 28.85 47.385) (end 28.850001 47.385) (layer "F.Fab") (width 0.2) (fill none) (tstamp c1aad8bd-a0f1-4bf3-8e6f-2bada5916491))
  (gr_line (start 82.25 67) (end 86.25 67) (layer "User.1") (width 0.15) (tstamp 078bc41c-7faa-490a-9c6e-389852cf05e3))
  (gr_line (start 11.5 41.5) (end 14 44) (layer "User.1") (width 0.15) (tstamp 0973117c-be76-4576-b64e-171422989fc5))
  (gr_line (start 13.5 -6.75) (end 13.5 -2.75) (layer "User.1") (width 0.15) (tstamp 0c1a2d92-23d8-4aab-9db3-8a2106a1e4f1))
  (gr_rect locked (start 2.5 -13.25) (end 26 -7.25) (layer "User.1") (width 0.15) (fill none) (tstamp 1222859d-5ead-4a37-8d96-0a4b5c8593d5))
  (gr_line (start 46.5 -6.5) (end 46.5 -2.5) (layer "User.1") (width 0.15) (tstamp 123b7d5f-df0b-43d7-b2f6-8fca2fc19ebb))
  (gr_line (start 59.75 -2.5) (end 61.75 -0.5) (layer "User.1") (width 0.15) (tstamp 133d2abf-0df1-4d56-9c31-47b1473e7a3d))
  (gr_line (start 86.25 67) (end 86.25 66) (layer "User.1") (width 0.15) (tstamp 214c0c7e-0add-43c7-841c-1ec162c9ebad))
  (gr_line (start 56 29) (end 66 29) (layer "User.1") (width 0.15) (tstamp 219c3993-0b7a-4a6d-a60f-9b6cf4973b82))
  (gr_line (start 45 -2.5) (end 47 -0.5) (layer "User.1") (width 0.15) (tstamp 28054d47-97f7-40c7-80cc-d14c4a18c258))
  (gr_line (start 56 30) (end 56 29) (layer "User.1") (width 0.15) (tstamp 291ee38b-f045-400b-b7e3-648fe2b4b302))
  (gr_line (start 49 -2.5) (end 47.5 -2.5) (layer "User.1") (width 0.15) (tstamp 2c82e045-ecdd-4457-b591-d0d6b0db7c90))
  (gr_rect (start 69.5 33.5) (end 38 23) (layer "User.1") (width 0.15) (fill none) (tstamp 308b8ffd-807e-4efa-b457-931bc861dc62))
  (gr_line (start 12 -2.75) (end 14 -0.75) (layer "User.1") (width 0.15) (tstamp 392bf586-ae0e-4d15-b15a-3dfbe7bbd646))
  (gr_rect (start -24.25 -13) (end -7.75 -8) (layer "User.1") (width 0.15) (fill none) (tstamp 3b506637-2a3e-45b7-9419-26df7175b8a0))
  (gr_line (start 47.5 -2.5) (end 47.5 -6.5) (layer "User.1") (width 0.15) (tstamp 3dcbed3c-c7a1-49f0-9236-a3e3a1904511))
  (gr_line (start 14 -0.75) (end 16 -2.75) (layer "User.1") (width 0.15) (tstamp 3e59b15c-8266-4d45-a8e7-78cd9e460465))
  (gr_line (start 66 30) (end 56 30) (layer "User.1") (width 0.15) (tstamp 46a91a8b-3d51-4cb0-9946-2b2fd8b2edc1))
  (gr_line (start 14 41) (end 24 41) (layer "User.1") (width 0.15) (tstamp 48c10ad2-8b7d-41de-b56b-f70a27cdd306))
  (gr_line (start 47.5 -6.5) (end 46.5 -6.5) (layer "User.1") (width 0.15) (tstamp 4d37736e-e30d-4cd2-9e72-dc405c30ef40))
  (gr_line (start 13.5 -2.75) (end 12 -2.75) (layer "User.1") (width 0.15) (tstamp 559f7556-26f2-45f4-88c0-72c9ea2cffc6))
  (gr_line (start 62.25 -2.5) (end 62.25 -6.5) (layer "User.1") (width 0.15) (tstamp 55aa621a-c79d-438f-8907-1c5ee2a35407))
  (gr_rect (start 10.75 35) (end 42.25 45.5) (layer "User.1") (width 0.15) (fill none) (tstamp 5d3dd324-0e2f-4c7a-a83e-086e0dcf3a43))
  (gr_line (start 24 41) (end 24 42) (layer "User.1") (width 0.15) (tstamp 6757824f-4908-4ece-93ff-dfe05d916fa2))
  (gr_line (start 68.5 29.5) (end 66 27) (layer "User.1") (width 0.15) (tstamp 6807576b-fb3f-4568-853b-eb1c25f2fcdd))
  (gr_line (start 14.5 -6.75) (end 13.5 -6.75) (layer "User.1") (width 0.15) (tstamp 695a9803-5c69-49c8-8ff5-6657772b7b3b))
  (gr_line (start 66 32) (end 68.5 29.5) (layer "User.1") (width 0.15) (tstamp 6a830b5b-6847-4bfa-b0a8-361e667677ea))
  (gr_line (start -0.75 -0.75) (end -0.75 -3.25) (layer "User.1") (width 0.15) (tstamp 6ad17417-f80a-4326-b402-5f747405dbbb))
  (gr_line (start 61.25 -6.5) (end 61.25 -2.5) (layer "User.1") (width 0.15) (tstamp 6e340e07-dd55-4fb4-9282-791514633810))
  (gr_rect (start 86.75 63.5) (end 108.75 69.5) (layer "User.1") (width 0.15) (fill none) (tstamp 6e9e4c9c-b5ef-44d1-b020-5945987452c8))
  (gr_rect locked (start 38.5 -13) (end 58 -7) (layer "User.1") (width 0.15) (fill none) (tstamp 819369e7-2ab1-4da8-856c-c7a21b0c98fd))
  (gr_line (start 86.25 66) (end 82.25 66) (layer "User.1") (width 0.15) (tstamp 837e03f1-4bb3-4e0d-ba86-c23abcdbb76f))
  (gr_line (start 82.25 68.5) (end 82.25 67) (layer "User.1") (width 0.15) (tstamp 872bbac7-cd76-4949-9cbc-a8de7e480393))
  (gr_line (start 47 -0.5) (end 49 -2.5) (layer "User.1") (width 0.15) (tstamp 8bde3cc4-12f8-471a-b20a-e631ba4da379))
  (gr_line (start -7.75 -7.75) (end -2 -2) (layer "User.1") (width 0.15) (tstamp 8ecbe2bf-ad0f-45c6-87ac-26c0789ac3b0))
  (gr_line (start -3.25 -0.75) (end -0.75 -3.25) (layer "User.1") (width 0.15) (tstamp 94c80d6c-8d77-435f-abf7-d725de8aad8d))
  (gr_line (start -0.75 -0.75) (end -3.25 -0.75) (layer "User.1") (width 0.15) (tstamp 95b9e322-ac97-4029-a12e-6e7fa510660c))
  (gr_line (start 14 42) (end 14 44) (layer "User.1") (width 0.15) (tstamp 96f8abf6-d3b1-4bf4-9444-304c872e1d3d))
  (gr_line (start 14 39) (end 11.5 41.5) (layer "User.1") (width 0.15) (tstamp a03448e0-8047-4d81-b626-7e3c5f08ef6d))
  (gr_line (start 14 39) (end 14 41) (layer "User.1") (width 0.15) (tstamp a0bc403e-eadc-4639-a7ec-ce54d225f745))
  (gr_line (start 61.75 -0.5) (end 63.75 -2.5) (layer "User.1") (width 0.15) (tstamp a0bce3f4-d65b-4485-8414-1751bbd49a73))
  (gr_rect locked (start 61.25 -13) (end 84.75 -7) (layer "User.1") (width 0.15) (fill none) (tstamp a7cb7913-3204-49fa-a6af-915ff35b153f))
  (gr_line (start 14.5 -2.75) (end 14.5 -6.75) (layer "User.1") (width 0.15) (tstamp b0fed342-9e13-4ff4-bbfc-dce235483514))
  (gr_line (start 82.25 66) (end 82.25 64.5) (layer "User.1") (width 0.15) (tstamp b427f617-2071-43b5-9561-32d7456e0205))
  (gr_line (start 66 32) (end 66 30) (layer "User.1") (width 0.15) (tstamp ba2ab926-9339-4349-8400-6220c9738594))
  (gr_line (start 24 42) (end 14 42) (layer "User.1") (width 0.15) (tstamp bd67cb31-2338-4624-b3c7-4cbb8e322d17))
  (gr_line (start 63.75 -2.5) (end 62.25 -2.5) (layer "User.1") (width 0.15) (tstamp cb254114-4044-4575-93df-9648c853247a))
  (gr_line (start 46.5 -2.5) (end 45 -2.5) (layer "User.1") (width 0.15) (tstamp ce181d49-06a6-459a-8e3f-56c0d41844c8))
  (gr_line (start 66 29) (end 66 27) (layer "User.1") (width 0.15) (tstamp ea6e7f1f-0380-4a39-9459-1e1630f217bd))
  (gr_line (start 62.25 -6.5) (end 61.25 -6.5) (layer "User.1") (width 0.15) (tstamp eabb3860-84a5-487f-9bb6-346242baddc3))
  (gr_line (start 82.25 64.5) (end 80.25 66.5) (layer "User.1") (width 0.15) (tstamp ebd7ac03-eed5-488e-a778-625b4ad4028b))
  (gr_line (start 16 -2.75) (end 14.5 -2.75) (layer "User.1") (width 0.15) (tstamp f4c68318-95d7-4fa6-bfc7-a1d19aeaf000))
  (gr_line (start 61.25 -2.5) (end 59.75 -2.5) (layer "User.1") (width 0.15) (tstamp f608289e-6c9c-404b-9e16-3dc15d51e573))
  (gr_line (start 80.25 66.5) (end 82.25 68.5) (layer "User.1") (width 0.15) (tstamp fdd803b9-0f4c-47c0-ab92-b897199854a5))
  (gr_text "Use footprint for M3 screw\nand solid connection of \npad to GND.\n" (at 87.25 66.5) (layer "User.1") (tstamp 1376cbca-edc8-4828-b479-181e3167aa2b)
    (effects (font (size 1 1) (thickness 0.15)) (justify left))
  )
  (gr_text "Right side connector for DAC and other\nPCBs. 16 bit LVDS interface and 2x SPI\nConnector used: FX8C 5mm height" (at 38.5 26) (layer "User.1") (tstamp 1bfcb05a-c357-4e55-bbf6-f4b9faf5deb6)
    (effects (font (size 1 1) (thickness 0.15)) (justify left))
  )
  (gr_text "Left side connector to PLL PCB\nConnector used: FX8C with 5mm height" (at 11.25 37) (layer "User.1") (tstamp 290b14d5-4564-4a1c-9a39-e16b84616fcf)
    (effects (font (size 1 1) (thickness 0.15)) (justify left))
  )
  (gr_text "Make sure that this \ncorner is at (0, 0)" (at -15.75 -10.5) (layer "User.1") (tstamp 493e0aa1-4f63-49d4-8a99-d70c30d0761c)
    (effects (font (size 1 1) (thickness 0.15)))
  )
  (gr_text "Blade connectors. \nUMPT on top,\nUMPS on bottom side of PCB" (at 3 -10.25) (layer "User.1") (tstamp 56ca9b5b-9fd2-4d5e-a021-37c4a9771705)
    (effects (font (size 1 1) (thickness 0.15)) (justify left))
  )
  (gr_text "Wuerth 3 Pin connector.\nRemove if PCB is not \non top of the stack!" (at 39 -10) (layer "User.1") (tstamp 59e5ae10-09af-48c3-858d-08dd4dabafbe)
    (effects (font (size 1 1) (thickness 0.15)) (justify left))
  )
  (gr_text "Blade connectors. \nUMPT on top,\nUMPS on bottom side of PCB" (at 61.75 -10) (layer "User.1") (tstamp 9ca2bbaf-3694-4035-8741-1c93bec32041)
    (effects (font (size 1 1) (thickness 0.15)) (justify left))
  )
  (dimension locked (type aligned) (layer "User.1") (tstamp 13d33c65-c812-43c7-83d2-86007803ad4e)
    (pts (xy 3.5 0) (xy 3.5 3.5))
    (height 8.75)
    (gr_text "3.5000 mm" (at -6.4 1.75 90) (layer "User.1") (tstamp 13d33c65-c812-43c7-83d2-86007803ad4e)
      (effects (font (size 1 1) (thickness 0.15)))
    )
    (format (units 3) (units_format 1) (precision 4))
    (style (thickness 0.15) (arrow_length 1.27) (text_position_mode 0) (extension_height 0.58642) (extension_offset 0.5) keep_text_aligned)
  )
  (dimension locked (type aligned) (layer "User.1") (tstamp 2523bd61-9fbc-43ee-8c55-6e7edb625e3a)
    (pts (xy 48.75 11.75) (xy 48.75 0))
    (height 33.25)
    (gr_text "11.7500 mm" (at 80.85 5.875 90) (layer "User.1") (tstamp 2523bd61-9fbc-43ee-8c55-6e7edb625e3a)
      (effects (font (size 1 1) (thickness 0.15)))
    )
    (format (units 3) (units_format 1) (precision 4))
    (style (thickness 0.15) (arrow_length 1.27) (text_position_mode 0) (extension_height 0.58642) (extension_offset 0.5) keep_text_aligned)
  )
  (dimension locked (type aligned) (layer "User.1") (tstamp 25e52a31-8366-4f9d-9cf7-a0bebbd9fbe4)
    (pts (xy 0 3.5) (xy 3.5 3.5))
    (height -7.25)
    (gr_text "3.5000 mm" (at 1.75 -4.9) (layer "User.1") (tstamp 25e52a31-8366-4f9d-9cf7-a0bebbd9fbe4)
      (effects (font (size 1 1) (thickness 0.15)))
    )
    (format (units 3) (units_format 1) (precision 4))
    (style (thickness 0.15) (arrow_length 1.27) (text_position_mode 0) (extension_height 0.58642) (extension_offset 0.5) keep_text_aligned)
  )
  (dimension locked (type aligned) (layer "User.1") (tstamp 44dc7675-2647-41df-8741-dc388155355f)
    (pts (xy 74.5 30) (xy 80 30))
    (height 42)
    (gr_text "5.5000 mm" (at 77.25 70.85) (layer "User.1") (tstamp 44dc7675-2647-41df-8741-dc388155355f)
      (effects (font (size 1 1) (thickness 0.15)))
    )
    (format (units 3) (units_format 1) (precision 4))
    (style (thickness 0.15) (arrow_length 1.27) (text_position_mode 0) (extension_height 0.58642) (extension_offset 0.5) keep_text_aligned)
  )
  (dimension locked (type aligned) (layer "User.1") (tstamp 4643ec0a-44eb-4fa9-af9d-bb2e919b4cd7)
    (pts (xy 0 0) (xy 0 70))
    (height 13.502314)
    (gr_text "70.0000 mm" (at -14.652314 35 90) (layer "User.1") (tstamp 4643ec0a-44eb-4fa9-af9d-bb2e919b4cd7)
      (effects (font (size 1 1) (thickness 0.15)))
    )
    (format (units 3) (units_format 1) (precision 4))
    (style (thickness 0.15) (arrow_length 1.27) (text_position_mode 0) (extension_height 0.58642) (extension_offset 0.5) keep_text_aligned)
  )
  (dimension locked (type aligned) (layer "User.1") (tstamp 70402d9e-b2bf-4f2c-9e82-717e1c859d6d)
    (pts (xy 0 70) (xy 80 70))
    (height 8)
    (gr_text "80.0000 mm" (at 40 76.85) (layer "User.1") (tstamp 70402d9e-b2bf-4f2c-9e82-717e1c859d6d)
      (effects (font (size 1 1) (thickness 0.15)))
    )
    (format (units 3) (units_format 1) (precision 4))
    (style (thickness 0.15) (arrow_length 1.27) (text_position_mode 0) (extension_height 0.58642) (extension_offset 0.5) keep_text_aligned)
  )
  (dimension locked (type aligned) (layer "User.1") (tstamp 96b8b3b1-2c76-42e7-83cd-6f222a209250)
    (pts (xy 5.5 30) (xy 0 30))
    (height -42)
    (gr_text "5.5000 mm" (at 2.75 70.85) (layer "User.1") (tstamp 96b8b3b1-2c76-42e7-83cd-6f222a209250)
      (effects (font (size 1 1) (thickness 0.15)))
    )
    (format (units 3) (units_format 1) (precision 4))
    (style (thickness 0.15) (arrow_length 1.27) (text_position_mode 0) (extension_height 0.58642) (extension_offset 0.5) keep_text_aligned)
  )
  (dimension locked (type aligned) (layer "User.1") (tstamp 9883ab2d-c942-4ca1-ad65-e0f703486aca)
    (pts (xy 5.5 30) (xy 5.5 0))
    (height -14.25)
    (gr_text "30.0000 mm" (at -9.9 15 90) (layer "User.1") (tstamp 9883ab2d-c942-4ca1-ad65-e0f703486aca)
      (effects (font (size 1 1) (thickness 0.15)))
    )
    (format (units 3) (units_format 1) (precision 4))
    (style (thickness 0.15) (arrow_length 1.27) (text_position_mode 0) (extension_height 0.58642) (extension_offset 0.5) keep_text_aligned)
  )
  (dimension locked (type aligned) (layer "User.1") (tstamp b33c0ff9-addb-44bc-8fbe-a6d80fbfd3b9)
    (pts (xy 74.5 30) (xy 74.5 0))
    (height 11.75)
    (gr_text "30.0000 mm" (at 85.1 15 90) (layer "User.1") (tstamp b33c0ff9-addb-44bc-8fbe-a6d80fbfd3b9)
      (effects (font (size 1 1) (thickness 0.15)))
    )
    (format (units 3) (units_format 1) (precision 4))
    (style (thickness 0.15) (arrow_length 1.27) (text_position_mode 0) (extension_height 0.58642) (extension_offset 0.5) keep_text_aligned)
  )

  (group "" (id 02b309e7-19d2-4071-b9a7-d1d2503f83ba)
    (members
      290b14d5-4564-4a1c-9a39-e16b84616fcf
      5d3dd324-0e2f-4c7a-a83e-086e0dcf3a43
      90a5a3db-027d-41c0-9c67-7eef0c3d8d0c
    )
  )
  (group "" (id 27d34746-4bc3-45fb-a847-93b911555478)
    (members
      219c3993-0b7a-4a6d-a60f-9b6cf4973b82
      291ee38b-f045-400b-b7e3-648fe2b4b302
      46a91a8b-3d51-4cb0-9946-2b2fd8b2edc1
      6807576b-fb3f-4568-853b-eb1c25f2fcdd
      6a830b5b-6847-4bfa-b0a8-361e667677ea
      ba2ab926-9339-4349-8400-6220c9738594
      ea6e7f1f-0380-4a39-9459-1e1630f217bd
    )
  )
  (group "" (id 3e19a5dc-20cc-4cf6-86db-fb7675413f95)
    (members
      0c1a2d92-23d8-4aab-9db3-8a2106a1e4f1
      392bf586-ae0e-4d15-b15a-3dfbe7bbd646
      3e59b15c-8266-4d45-a8e7-78cd9e460465
      559f7556-26f2-45f4-88c0-72c9ea2cffc6
      695a9803-5c69-49c8-8ff5-6657772b7b3b
      b0fed342-9e13-4ff4-bbfc-dce235483514
      f4c68318-95d7-4fa6-bfc7-a1d19aeaf000
    )
  )
  (group "" (id 4d58c034-c1c2-4950-a3cc-e4a48d2b58b4)
    (members
      133d2abf-0df1-4d56-9c31-47b1473e7a3d
      55aa621a-c79d-438f-8907-1c5ee2a35407
      6e340e07-dd55-4fb4-9282-791514633810
      a0bce3f4-d65b-4485-8414-1751bbd49a73
      cb254114-4044-4575-93df-9648c853247a
      eabb3860-84a5-487f-9bb6-346242baddc3
      f608289e-6c9c-404b-9e16-3dc15d51e573
    )
  )
  (group "" (id 78aea41e-f7ce-4ef7-a344-88708dbded0e)
    (members
      078bc41c-7faa-490a-9c6e-389852cf05e3
      214c0c7e-0add-43c7-841c-1ec162c9ebad
      837e03f1-4bb3-4e0d-ba86-c23abcdbb76f
      872bbac7-cd76-4949-9cbc-a8de7e480393
      b427f617-2071-43b5-9561-32d7456e0205
      ebd7ac03-eed5-488e-a778-625b4ad4028b
      fdd803b9-0f4c-47c0-ab92-b897199854a5
    )
  )
  (group "" (id 90a5a3db-027d-41c0-9c67-7eef0c3d8d0c)
    (members
      0973117c-be76-4576-b64e-171422989fc5
      48c10ad2-8b7d-41de-b56b-f70a27cdd306
      6757824f-4908-4ece-93ff-dfe05d916fa2
      96f8abf6-d3b1-4bf4-9444-304c872e1d3d
      a03448e0-8047-4d81-b626-7e3c5f08ef6d
      a0bc403e-eadc-4639-a7ec-ce54d225f745
      bd67cb31-2338-4624-b3c7-4cbb8e322d17
    )
  )
  (group "" (id c0f7483c-0918-4fac-9e2a-100d249d1e29)
    (members
      1376cbca-edc8-4828-b479-181e3167aa2b
      6e9e4c9c-b5ef-44d1-b020-5945987452c8
    )
  )
  (group "" (id c364335b-d0e6-4c85-86dd-360b9d6faa2b)
    (members
      1bfcb05a-c357-4e55-bbf6-f4b9faf5deb6
      27d34746-4bc3-45fb-a847-93b911555478
      308b8ffd-807e-4efa-b457-931bc861dc62
    )
  )
  (group "" (id cc09c90b-712a-4ac5-b8c9-6558ad12a3b8)
    (members
      3b506637-2a3e-45b7-9419-26df7175b8a0
      493e0aa1-4f63-49d4-8a99-d70c30d0761c
    )
  )
  (group "" (id f794cd26-9df4-4959-b71c-1da6364a5827)
    (members
      6ad17417-f80a-4326-b402-5f747405dbbb
      8ecbe2bf-ad0f-45c6-87ac-26c0789ac3b0
      94c80d6c-8d77-435f-abf7-d725de8aad8d
      95b9e322-ac97-4029-a12e-6e7fa510660c
    )
  )
  (group "" (id fcbfb461-d9b7-48b7-ad93-4264127f825c)
    (members
      123b7d5f-df0b-43d7-b2f6-8fca2fc19ebb
      28054d47-97f7-40c7-80cc-d14c4a18c258
      2c82e045-ecdd-4457-b591-d0d6b0db7c90
      3dcbed3c-c7a1-49f0-9236-a3e3a1904511
      4d37736e-e30d-4cd2-9e72-dc405c30ef40
      8bde3cc4-12f8-471a-b20a-e631ba4da379
      ce181d49-06a6-459a-8e3f-56c0d41844c8
    )
  )
)
