(footprint "C_0402" (version 20210606) (generator pcbnew) (layer "F.Cu")
  (tedit 6101170E)
  (fp_text reference "REF**" (at 0 -1.5 unlocked) (layer "F.SilkS")
    (effects (font (size 1 1) (thickness 0.15)))
    (tstamp 0b658e4d-648d-46d6-9593-a7e8a3c0e288)
  )
  (fp_text value "C_0402" (at 0 1.5 unlocked) (layer "F.Fab")
    (effects (font (size 1 1) (thickness 0.15)))
    (tstamp b0a8785c-e15f-4cca-9840-7a06401268bd)
  )
  (fp_line (start -0.15 -0.2) (end 0.15 -0.2) (layer "F.SilkS") (width 0.12) (tstamp c4781f97-6c2b-441c-a8ec-22a196e31bfd))
  (fp_line (start -0.15 0.2) (end 0.15 0.2) (layer "F.SilkS") (width 0.12) (tstamp e3cc5c9b-bd18-4399-8b1a-230132de4667))
  (fp_line (start -1 0.5) (end -1 -0.5) (layer "F.CrtYd") (width 0.05) (tstamp a0bf1e0a-6734-4caa-ab7d-1a407fd74011))
  (fp_line (start -1 -0.5) (end 1 -0.5) (layer "F.CrtYd") (width 0.05) (tstamp e6e46681-a136-4928-a57d-45b89fc96d54))
  (fp_line (start 1 0.5) (end 1 -0.5) (layer "F.CrtYd") (width 0.05) (tstamp e9cabe16-b05b-44dc-8ecb-c6b7f7d3defc))
  (fp_line (start -1 0.5) (end 1 0.5) (layer "F.CrtYd") (width 0.05) (tstamp f897c113-0536-4547-9636-c3bbbe9f07ba))
  (fp_line (start 0.5 0.2) (end -0.5 0.2) (layer "F.Fab") (width 0.1) (tstamp 97beb4ff-b95a-4e51-86a8-62e2cfc6573a))
  (fp_line (start -0.5 -0.2) (end 0.5 -0.2) (layer "F.Fab") (width 0.1) (tstamp d270a414-d8b4-409c-b045-3a7c912267e6))
  (pad "1" smd roundrect (at -0.5 0) (size 0.5 0.5) (layers "F.Cu" "F.Paste" "F.Mask") (roundrect_rratio 0.25) (tstamp 97022a4c-ad17-4489-b450-39fa6af23907))
  (pad "2" smd roundrect (at 0.5 0) (size 0.5 0.5) (layers "F.Cu" "F.Paste" "F.Mask") (roundrect_rratio 0.25) (tstamp 98f3de9d-9caa-46d0-bba0-13053394da34))
)
