(footprint "C_0603" (version 20210606) (generator pcbnew) (layer "F.Cu")
  (tedit 610125CF)
  (fp_text reference "REF**" (at 0 -4 unlocked) (layer "F.SilkS")
    (effects (font (size 1 1) (thickness 0.15)))
    (tstamp a976353f-e0af-4051-a9cf-7530835b8694)
  )
  (fp_text value "C_0603" (at 0 5 unlocked) (layer "F.Fab")
    (effects (font (size 1 1) (thickness 0.15)))
    (tstamp 7ac65e16-d55c-4e0a-aae8-5af451b92776)
  )
  (fp_line (start -0.25 -0.35) (end 0.25 -0.35) (layer "F.SilkS") (width 0.12) (tstamp 8b543cd3-a3ed-4943-83ff-1644169033b6))
  (fp_line (start -0.25 0.35) (end 0.25 0.35) (layer "F.SilkS") (width 0.12) (tstamp 9d34fff9-2dd6-4e1b-8f26-fa837f3155dc))
  (fp_line (start -1.45 -0.65) (end 1.45 -0.65) (layer "F.CrtYd") (width 0.05) (tstamp 5930de47-fec7-425b-bf33-bd1bb3b682c4))
  (fp_line (start 1.45 0.65) (end 1.45 -0.65) (layer "F.CrtYd") (width 0.05) (tstamp 673155d6-ce69-4527-b7b9-782fb5f11fc7))
  (fp_line (start -1.45 0.65) (end -1.45 -0.65) (layer "F.CrtYd") (width 0.05) (tstamp 7f62cc76-501c-4789-93e5-c31a540eb894))
  (fp_line (start -1.45 0.65) (end 1.45 0.65) (layer "F.CrtYd") (width 0.05) (tstamp f74c4733-8862-4ab9-9407-8125a9ed8913))
  (fp_line (start 0.75 0.35) (end -0.75 0.35) (layer "F.Fab") (width 0.1) (tstamp 01bde37c-f6c5-432a-97d4-ffbffc74f94f))
  (fp_line (start 0.75 -0.35) (end -0.75 -0.35) (layer "F.Fab") (width 0.1) (tstamp 21784560-c510-41c2-8039-de2e62189a87))
  (pad "1" smd roundrect (at -0.8 0) (size 0.8 0.8) (layers "F.Cu" "F.Paste" "F.Mask") (roundrect_rratio 0.25) (tstamp cbbef830-94b9-4c3c-848b-471938dc46c6))
  (pad "2" smd roundrect (at 0.8 0) (size 0.8 0.8) (layers "F.Cu" "F.Paste" "F.Mask") (roundrect_rratio 0.25) (tstamp d11438cf-055b-4bb1-8b89-30a12af62150))
)
