(footprint "Conn_FX8C_80Pin_Header" (version 20210606) (generator pcbnew) (layer "F.Cu")
  (tedit 60F70983)
  (attr through_hole)
  (fp_text reference "REF**" (at 0 -5) (layer "F.SilkS")
    (effects (font (size 1 1) (thickness 0.15)))
    (tstamp 3eb7608b-3563-4a3e-b646-968e620bd44f)
  )
  (fp_text value "Conn_FX8C_80Pin_Header" (at 0 5) (layer "F.Fab")
    (effects (font (size 1 1) (thickness 0.15)))
    (tstamp 73194895-b7aa-4a97-a787-d969bef364b0)
  )
  (fp_line (start -15.4 -4) (end 15.4 -4) (layer "F.SilkS") (width 0.12) (tstamp 1bd8d4af-fce5-42e6-8161-811cd1784dbe))
  (fp_line (start -13.8 4) (end -15.4 2.4) (layer "F.SilkS") (width 0.12) (tstamp 454821a4-bd9e-427b-8bf9-9437066a602b))
  (fp_line (start -15.4 2.4) (end -15.4 -4) (layer "F.SilkS") (width 0.12) (tstamp 7a5b76e4-cd13-4eb5-8ded-b71b88889e61))
  (fp_line (start 15.4 4) (end 15.4 -4) (layer "F.SilkS") (width 0.12) (tstamp 9f9e67cd-72ef-4337-87f4-0c1f74a2dd54))
  (fp_line (start -13.8 4) (end 15.4 4) (layer "F.SilkS") (width 0.12) (tstamp d2d0a4cb-3e78-466f-a4cc-b63bbd394d7b))
  (fp_line (start 12.15 -3.705) (end 12.15 3.705) (layer "F.CrtYd") (width 0.05) (tstamp 1f55ce62-4e71-46aa-b069-94d0ac02d9c1))
  (fp_line (start -12.15 -3.705) (end 12.15 -3.705) (layer "F.CrtYd") (width 0.05) (tstamp 783aa9e9-2efc-4a78-973c-6eaf4a7471ca))
  (fp_line (start -12.15 3.705) (end -12.15 -3.705) (layer "F.CrtYd") (width 0.05) (tstamp 78a123a3-2d1e-4f52-92a6-06f649d2283f))
  (fp_line (start -12.15 3.705) (end 12.15 3.705) (layer "F.CrtYd") (width 0.05) (tstamp bb0de890-5680-4490-93fe-eb332bd5f084))
  (pad "" thru_hole circle (at 14.1 1.5) (size 1.2 1.2) (drill 0.8) (layers *.Cu *.Mask) (tstamp 740a2d57-4428-436d-a67f-33c94c24288d))
  (pad "" thru_hole circle (at -14.1 1.5) (size 1.6 1.6) (drill 1.2) (layers *.Cu *.Mask) (tstamp e49d9fbc-1102-43dc-95d1-352ce85cef99))
  (pad "1" smd rect (at -11.7 2.225) (size 0.4 2.45) (layers "F.Cu" "F.Paste" "F.Mask") (tstamp 9047f66e-b035-4cb4-a2f1-828fee0e43dd))
  (pad "2" smd rect (at -11.7 -2.225) (size 0.4 2.45) (layers "F.Cu" "F.Paste" "F.Mask") (tstamp 9047f66e-b035-4cb4-a2f1-828fee0e43dd))
  (pad "3" smd rect (at -11.1 2.225) (size 0.4 2.45) (layers "F.Cu" "F.Paste" "F.Mask") (tstamp 9047f66e-b035-4cb4-a2f1-828fee0e43dd))
  (pad "4" smd rect (at -11.1 -2.225) (size 0.4 2.45) (layers "F.Cu" "F.Paste" "F.Mask") (tstamp 9047f66e-b035-4cb4-a2f1-828fee0e43dd))
  (pad "5" smd rect (at -10.5 2.225) (size 0.4 2.45) (layers "F.Cu" "F.Paste" "F.Mask") (tstamp 9047f66e-b035-4cb4-a2f1-828fee0e43dd))
  (pad "6" smd rect (at -10.5 -2.225) (size 0.4 2.45) (layers "F.Cu" "F.Paste" "F.Mask") (tstamp 9047f66e-b035-4cb4-a2f1-828fee0e43dd))
  (pad "7" smd rect (at -9.9 2.225) (size 0.4 2.45) (layers "F.Cu" "F.Paste" "F.Mask") (tstamp 9047f66e-b035-4cb4-a2f1-828fee0e43dd))
  (pad "8" smd rect (at -9.9 -2.225) (size 0.4 2.45) (layers "F.Cu" "F.Paste" "F.Mask") (tstamp 9047f66e-b035-4cb4-a2f1-828fee0e43dd))
  (pad "9" smd rect (at -9.3 2.225) (size 0.4 2.45) (layers "F.Cu" "F.Paste" "F.Mask") (tstamp 9047f66e-b035-4cb4-a2f1-828fee0e43dd))
  (pad "10" smd rect (at -9.3 -2.225) (size 0.4 2.45) (layers "F.Cu" "F.Paste" "F.Mask") (tstamp 9047f66e-b035-4cb4-a2f1-828fee0e43dd))
  (pad "11" smd rect (at -8.7 2.225) (size 0.4 2.45) (layers "F.Cu" "F.Paste" "F.Mask") (tstamp 9047f66e-b035-4cb4-a2f1-828fee0e43dd))
  (pad "12" smd rect (at -8.7 -2.225) (size 0.4 2.45) (layers "F.Cu" "F.Paste" "F.Mask") (tstamp 9047f66e-b035-4cb4-a2f1-828fee0e43dd))
  (pad "13" smd rect (at -8.1 2.225) (size 0.4 2.45) (layers "F.Cu" "F.Paste" "F.Mask") (tstamp 9047f66e-b035-4cb4-a2f1-828fee0e43dd))
  (pad "14" smd rect (at -8.1 -2.225) (size 0.4 2.45) (layers "F.Cu" "F.Paste" "F.Mask") (tstamp 9047f66e-b035-4cb4-a2f1-828fee0e43dd))
  (pad "15" smd rect (at -7.5 2.225) (size 0.4 2.45) (layers "F.Cu" "F.Paste" "F.Mask") (tstamp 9047f66e-b035-4cb4-a2f1-828fee0e43dd))
  (pad "16" smd rect (at -7.5 -2.225) (size 0.4 2.45) (layers "F.Cu" "F.Paste" "F.Mask") (tstamp 9047f66e-b035-4cb4-a2f1-828fee0e43dd))
  (pad "17" smd rect (at -6.9 2.225) (size 0.4 2.45) (layers "F.Cu" "F.Paste" "F.Mask") (tstamp 9047f66e-b035-4cb4-a2f1-828fee0e43dd))
  (pad "18" smd rect (at -6.9 -2.225) (size 0.4 2.45) (layers "F.Cu" "F.Paste" "F.Mask") (tstamp 9047f66e-b035-4cb4-a2f1-828fee0e43dd))
  (pad "19" smd rect (at -6.3 2.225) (size 0.4 2.45) (layers "F.Cu" "F.Paste" "F.Mask") (tstamp 9047f66e-b035-4cb4-a2f1-828fee0e43dd))
  (pad "20" smd rect (at -6.3 -2.225) (size 0.4 2.45) (layers "F.Cu" "F.Paste" "F.Mask") (tstamp 9047f66e-b035-4cb4-a2f1-828fee0e43dd))
  (pad "21" smd rect (at -5.7 2.225) (size 0.4 2.45) (layers "F.Cu" "F.Paste" "F.Mask") (tstamp 9047f66e-b035-4cb4-a2f1-828fee0e43dd))
  (pad "22" smd rect (at -5.7 -2.225) (size 0.4 2.45) (layers "F.Cu" "F.Paste" "F.Mask") (tstamp 9047f66e-b035-4cb4-a2f1-828fee0e43dd))
  (pad "23" smd rect (at -5.1 2.225) (size 0.4 2.45) (layers "F.Cu" "F.Paste" "F.Mask") (tstamp 9047f66e-b035-4cb4-a2f1-828fee0e43dd))
  (pad "24" smd rect (at -5.1 -2.225) (size 0.4 2.45) (layers "F.Cu" "F.Paste" "F.Mask") (tstamp 9047f66e-b035-4cb4-a2f1-828fee0e43dd))
  (pad "25" smd rect (at -4.5 2.225) (size 0.4 2.45) (layers "F.Cu" "F.Paste" "F.Mask") (tstamp 9047f66e-b035-4cb4-a2f1-828fee0e43dd))
  (pad "26" smd rect (at -4.5 -2.225) (size 0.4 2.45) (layers "F.Cu" "F.Paste" "F.Mask") (tstamp 9047f66e-b035-4cb4-a2f1-828fee0e43dd))
  (pad "27" smd rect (at -3.9 2.225) (size 0.4 2.45) (layers "F.Cu" "F.Paste" "F.Mask") (tstamp 9047f66e-b035-4cb4-a2f1-828fee0e43dd))
  (pad "28" smd rect (at -3.9 -2.225) (size 0.4 2.45) (layers "F.Cu" "F.Paste" "F.Mask") (tstamp 9047f66e-b035-4cb4-a2f1-828fee0e43dd))
  (pad "29" smd rect (at -3.3 2.225) (size 0.4 2.45) (layers "F.Cu" "F.Paste" "F.Mask") (tstamp 9047f66e-b035-4cb4-a2f1-828fee0e43dd))
  (pad "30" smd rect (at -3.3 -2.225) (size 0.4 2.45) (layers "F.Cu" "F.Paste" "F.Mask") (tstamp 9047f66e-b035-4cb4-a2f1-828fee0e43dd))
  (pad "31" smd rect (at -2.7 2.225) (size 0.4 2.45) (layers "F.Cu" "F.Paste" "F.Mask") (tstamp 9047f66e-b035-4cb4-a2f1-828fee0e43dd))
  (pad "32" smd rect (at -2.7 -2.225) (size 0.4 2.45) (layers "F.Cu" "F.Paste" "F.Mask") (tstamp 9047f66e-b035-4cb4-a2f1-828fee0e43dd))
  (pad "33" smd rect (at -2.1 2.225) (size 0.4 2.45) (layers "F.Cu" "F.Paste" "F.Mask") (tstamp 9047f66e-b035-4cb4-a2f1-828fee0e43dd))
  (pad "34" smd rect (at -2.1 -2.225) (size 0.4 2.45) (layers "F.Cu" "F.Paste" "F.Mask") (tstamp 9047f66e-b035-4cb4-a2f1-828fee0e43dd))
  (pad "35" smd rect (at -1.5 2.225) (size 0.4 2.45) (layers "F.Cu" "F.Paste" "F.Mask") (tstamp 9047f66e-b035-4cb4-a2f1-828fee0e43dd))
  (pad "36" smd rect (at -1.5 -2.225) (size 0.4 2.45) (layers "F.Cu" "F.Paste" "F.Mask") (tstamp 9047f66e-b035-4cb4-a2f1-828fee0e43dd))
  (pad "37" smd rect (at -0.9 2.225) (size 0.4 2.45) (layers "F.Cu" "F.Paste" "F.Mask") (tstamp 9047f66e-b035-4cb4-a2f1-828fee0e43dd))
  (pad "38" smd rect (at -0.9 -2.225) (size 0.4 2.45) (layers "F.Cu" "F.Paste" "F.Mask") (tstamp 9047f66e-b035-4cb4-a2f1-828fee0e43dd))
  (pad "39" smd rect (at -0.3 2.225) (size 0.4 2.45) (layers "F.Cu" "F.Paste" "F.Mask") (tstamp 9047f66e-b035-4cb4-a2f1-828fee0e43dd))
  (pad "40" smd rect (at -0.3 -2.225) (size 0.4 2.45) (layers "F.Cu" "F.Paste" "F.Mask") (tstamp 9047f66e-b035-4cb4-a2f1-828fee0e43dd))
  (pad "41" smd rect (at 0.3 2.225) (size 0.4 2.45) (layers "F.Cu" "F.Paste" "F.Mask") (tstamp 9047f66e-b035-4cb4-a2f1-828fee0e43dd))
  (pad "42" smd rect (at 0.3 -2.225) (size 0.4 2.45) (layers "F.Cu" "F.Paste" "F.Mask") (tstamp 9047f66e-b035-4cb4-a2f1-828fee0e43dd))
  (pad "43" smd rect (at 0.9 2.225) (size 0.4 2.45) (layers "F.Cu" "F.Paste" "F.Mask") (tstamp 9047f66e-b035-4cb4-a2f1-828fee0e43dd))
  (pad "44" smd rect (at 0.9 -2.225) (size 0.4 2.45) (layers "F.Cu" "F.Paste" "F.Mask") (tstamp 9047f66e-b035-4cb4-a2f1-828fee0e43dd))
  (pad "45" smd rect (at 1.5 2.225) (size 0.4 2.45) (layers "F.Cu" "F.Paste" "F.Mask") (tstamp 9047f66e-b035-4cb4-a2f1-828fee0e43dd))
  (pad "46" smd rect (at 1.5 -2.225) (size 0.4 2.45) (layers "F.Cu" "F.Paste" "F.Mask") (tstamp 9047f66e-b035-4cb4-a2f1-828fee0e43dd))
  (pad "47" smd rect (at 2.1 2.225) (size 0.4 2.45) (layers "F.Cu" "F.Paste" "F.Mask") (tstamp 9047f66e-b035-4cb4-a2f1-828fee0e43dd))
  (pad "48" smd rect (at 2.1 -2.225) (size 0.4 2.45) (layers "F.Cu" "F.Paste" "F.Mask") (tstamp 9047f66e-b035-4cb4-a2f1-828fee0e43dd))
  (pad "49" smd rect (at 2.7 2.225) (size 0.4 2.45) (layers "F.Cu" "F.Paste" "F.Mask") (tstamp 9047f66e-b035-4cb4-a2f1-828fee0e43dd))
  (pad "50" smd rect (at 2.7 -2.225) (size 0.4 2.45) (layers "F.Cu" "F.Paste" "F.Mask") (tstamp 9047f66e-b035-4cb4-a2f1-828fee0e43dd))
  (pad "51" smd rect (at 3.3 2.225) (size 0.4 2.45) (layers "F.Cu" "F.Paste" "F.Mask") (tstamp 9047f66e-b035-4cb4-a2f1-828fee0e43dd))
  (pad "52" smd rect (at 3.3 -2.225) (size 0.4 2.45) (layers "F.Cu" "F.Paste" "F.Mask") (tstamp 9047f66e-b035-4cb4-a2f1-828fee0e43dd))
  (pad "53" smd rect (at 3.9 2.225) (size 0.4 2.45) (layers "F.Cu" "F.Paste" "F.Mask") (tstamp 9047f66e-b035-4cb4-a2f1-828fee0e43dd))
  (pad "54" smd rect (at 3.9 -2.225) (size 0.4 2.45) (layers "F.Cu" "F.Paste" "F.Mask") (tstamp 9047f66e-b035-4cb4-a2f1-828fee0e43dd))
  (pad "55" smd rect (at 4.5 2.225) (size 0.4 2.45) (layers "F.Cu" "F.Paste" "F.Mask") (tstamp 9047f66e-b035-4cb4-a2f1-828fee0e43dd))
  (pad "56" smd rect (at 4.5 -2.225) (size 0.4 2.45) (layers "F.Cu" "F.Paste" "F.Mask") (tstamp 9047f66e-b035-4cb4-a2f1-828fee0e43dd))
  (pad "57" smd rect (at 5.1 2.225) (size 0.4 2.45) (layers "F.Cu" "F.Paste" "F.Mask") (tstamp 9047f66e-b035-4cb4-a2f1-828fee0e43dd))
  (pad "58" smd rect (at 5.1 -2.225) (size 0.4 2.45) (layers "F.Cu" "F.Paste" "F.Mask") (tstamp 9047f66e-b035-4cb4-a2f1-828fee0e43dd))
  (pad "59" smd rect (at 5.7 2.225) (size 0.4 2.45) (layers "F.Cu" "F.Paste" "F.Mask") (tstamp 9047f66e-b035-4cb4-a2f1-828fee0e43dd))
  (pad "60" smd rect (at 5.7 -2.225) (size 0.4 2.45) (layers "F.Cu" "F.Paste" "F.Mask") (tstamp 9047f66e-b035-4cb4-a2f1-828fee0e43dd))
  (pad "61" smd rect (at 6.3 2.225) (size 0.4 2.45) (layers "F.Cu" "F.Paste" "F.Mask") (tstamp 9047f66e-b035-4cb4-a2f1-828fee0e43dd))
  (pad "62" smd rect (at 6.3 -2.225) (size 0.4 2.45) (layers "F.Cu" "F.Paste" "F.Mask") (tstamp 9047f66e-b035-4cb4-a2f1-828fee0e43dd))
  (pad "63" smd rect (at 6.9 2.225) (size 0.4 2.45) (layers "F.Cu" "F.Paste" "F.Mask") (tstamp 9047f66e-b035-4cb4-a2f1-828fee0e43dd))
  (pad "64" smd rect (at 6.9 -2.225) (size 0.4 2.45) (layers "F.Cu" "F.Paste" "F.Mask") (tstamp 9047f66e-b035-4cb4-a2f1-828fee0e43dd))
  (pad "65" smd rect (at 7.5 2.225) (size 0.4 2.45) (layers "F.Cu" "F.Paste" "F.Mask") (tstamp 9047f66e-b035-4cb4-a2f1-828fee0e43dd))
  (pad "66" smd rect (at 7.5 -2.225) (size 0.4 2.45) (layers "F.Cu" "F.Paste" "F.Mask") (tstamp 9047f66e-b035-4cb4-a2f1-828fee0e43dd))
  (pad "67" smd rect (at 8.1 2.225) (size 0.4 2.45) (layers "F.Cu" "F.Paste" "F.Mask") (tstamp 9047f66e-b035-4cb4-a2f1-828fee0e43dd))
  (pad "68" smd rect (at 8.1 -2.225) (size 0.4 2.45) (layers "F.Cu" "F.Paste" "F.Mask") (tstamp 9047f66e-b035-4cb4-a2f1-828fee0e43dd))
  (pad "69" smd rect (at 8.7 2.225) (size 0.4 2.45) (layers "F.Cu" "F.Paste" "F.Mask") (tstamp 9047f66e-b035-4cb4-a2f1-828fee0e43dd))
  (pad "70" smd rect (at 8.7 -2.225) (size 0.4 2.45) (layers "F.Cu" "F.Paste" "F.Mask") (tstamp 9047f66e-b035-4cb4-a2f1-828fee0e43dd))
  (pad "71" smd rect (at 9.3 2.225) (size 0.4 2.45) (layers "F.Cu" "F.Paste" "F.Mask") (tstamp 9047f66e-b035-4cb4-a2f1-828fee0e43dd))
  (pad "72" smd rect (at 9.3 -2.225) (size 0.4 2.45) (layers "F.Cu" "F.Paste" "F.Mask") (tstamp 9047f66e-b035-4cb4-a2f1-828fee0e43dd))
  (pad "73" smd rect (at 9.9 2.225) (size 0.4 2.45) (layers "F.Cu" "F.Paste" "F.Mask") (tstamp 9047f66e-b035-4cb4-a2f1-828fee0e43dd))
  (pad "74" smd rect (at 9.9 -2.225) (size 0.4 2.45) (layers "F.Cu" "F.Paste" "F.Mask") (tstamp 9047f66e-b035-4cb4-a2f1-828fee0e43dd))
  (pad "75" smd rect (at 10.5 2.225) (size 0.4 2.45) (layers "F.Cu" "F.Paste" "F.Mask") (tstamp 9047f66e-b035-4cb4-a2f1-828fee0e43dd))
  (pad "76" smd rect (at 10.5 -2.225) (size 0.4 2.45) (layers "F.Cu" "F.Paste" "F.Mask") (tstamp 9047f66e-b035-4cb4-a2f1-828fee0e43dd))
  (pad "77" smd rect (at 11.1 2.225) (size 0.4 2.45) (layers "F.Cu" "F.Paste" "F.Mask") (tstamp 9047f66e-b035-4cb4-a2f1-828fee0e43dd))
  (pad "78" smd rect (at 11.1 -2.225) (size 0.4 2.45) (layers "F.Cu" "F.Paste" "F.Mask") (tstamp 9047f66e-b035-4cb4-a2f1-828fee0e43dd))
  (pad "79" smd rect (at 11.7 2.225) (size 0.4 2.45) (layers "F.Cu" "F.Paste" "F.Mask") (tstamp 9047f66e-b035-4cb4-a2f1-828fee0e43dd))
  (pad "80" smd rect (at 11.7 -2.225) (size 0.4 2.45) (layers "F.Cu" "F.Paste" "F.Mask") (tstamp 9047f66e-b035-4cb4-a2f1-828fee0e43dd))
)
