(footprint "Conn_02x04_SMD_Pads" (version 20210606) (generator pcbnew) (layer "F.Cu")
  (tedit 60FFC2F8)
  (fp_text reference "REF**" (at 0 -3 unlocked) (layer "F.SilkS")
    (effects (font (size 1 1) (thickness 0.15)))
    (tstamp fafe0c33-0392-4c1a-8cb9-daf864c2b1c6)
  )
  (fp_text value "Conn_02x04_SMD_Pads" (at 0 3 unlocked) (layer "F.Fab")
    (effects (font (size 1 1) (thickness 0.15)))
    (tstamp 42afad2d-9e92-4883-8e5c-5401486b26fb)
  )
  (fp_line (start -3.5 0) (end -3.5 -2) (layer "F.SilkS") (width 0.12) (tstamp 5c36b904-0cc5-42be-909c-3ea71874e3bb))
  (fp_line (start -3.5 -2) (end -1.5 -2) (layer "F.SilkS") (width 0.12) (tstamp cdf34204-9650-448f-8e8d-84bb2650afde))
  (fp_rect (start -3 -1.5) (end 3 1.5) (layer "F.CrtYd") (width 0.12) (fill none) (tstamp b2eeff23-8b9e-44d9-a8cc-59a4db51ff48))
  (pad "1" smd circle (at -2.25 -0.75) (size 1 1) (layers "F.Cu" "F.Paste" "F.Mask") (tstamp 7a7b98b2-dda6-4758-a496-2944b95da237))
  (pad "2" smd circle (at -2.25 0.75) (size 1 1) (layers "F.Cu" "F.Paste" "F.Mask") (tstamp 11a5e980-015d-44b1-a791-623c7f17a629))
  (pad "3" smd circle (at -0.75 -0.75) (size 1 1) (layers "F.Cu" "F.Paste" "F.Mask") (tstamp 07c6a5ca-1042-4778-bc9b-1c2f5cb3a92e))
  (pad "4" smd circle (at -0.75 0.75) (size 1 1) (layers "F.Cu" "F.Paste" "F.Mask") (tstamp 0f2b28f3-3836-4f0e-a6ed-ba8f9328a8ca))
  (pad "5" smd circle (at 0.75 -0.75) (size 1 1) (layers "F.Cu" "F.Paste" "F.Mask") (tstamp 99f8ec67-18fe-4b0c-97ce-d71b1af88575))
  (pad "6" smd circle (at 0.75 0.75) (size 1 1) (layers "F.Cu" "F.Paste" "F.Mask") (tstamp 44133a10-8629-4d46-8baf-d0dd7bdeffd1))
  (pad "7" smd circle (at 2.25 -0.75) (size 1 1) (layers "F.Cu" "F.Paste" "F.Mask") (tstamp ade4fb08-783f-47af-9c4b-b16ef8bf8396))
  (pad "8" smd circle (at 2.25 0.75) (size 1 1) (layers "F.Cu" "F.Paste" "F.Mask") (tstamp 7ea9c811-9ec1-442e-8765-89f8925347a0))
)
