(footprint "Ferrite_0402" (version 20210606) (generator pcbnew) (layer "F.Cu")
  (tedit 61011A6E)
  (fp_text reference "REF**" (at 0 -1.4 unlocked) (layer "F.SilkS")
    (effects (font (size 1 1) (thickness 0.15)))
    (tstamp 0deb30f3-5e6d-445b-b430-4c0dcf16ce97)
  )
  (fp_text value "Ferrite_0402" (at 0 1.4 unlocked) (layer "F.Fab")
    (effects (font (size 1 1) (thickness 0.15)))
    (tstamp 03619849-f255-4014-b9b8-0f9e7e831729)
  )
  (fp_line (start -0.15 0.2) (end 0.15 0.2) (layer "F.SilkS") (width 0.12) (tstamp 0248c94b-0c18-46f6-98e7-e00d5b50e4da))
  (fp_line (start -0.15 -0.2) (end 0.15 -0.2) (layer "F.SilkS") (width 0.12) (tstamp 941184a6-9f46-42d0-b062-9877a8dda42a))
  (fp_line (start -1 0.5) (end -1 -0.5) (layer "F.CrtYd") (width 0.05) (tstamp 17f502d9-2879-411f-8860-40676846c23a))
  (fp_line (start -1 0.5) (end 1 0.5) (layer "F.CrtYd") (width 0.05) (tstamp 316e2be0-7e6b-40d6-9e11-ef5f88e5733c))
  (fp_line (start -1 -0.5) (end 1 -0.5) (layer "F.CrtYd") (width 0.05) (tstamp ed3a7837-da76-4f85-aa8e-600fdb14270f))
  (fp_line (start 1 0.5) (end 1 -0.5) (layer "F.CrtYd") (width 0.05) (tstamp f7aff10c-2b17-4c8f-99f0-8a18a97cc2e5))
  (fp_line (start -0.5 -0.2) (end 0.5 -0.2) (layer "F.Fab") (width 0.1) (tstamp ea261e33-3de3-480b-857f-b6b7eb3b66cd))
  (fp_line (start 0.5 0.2) (end -0.5 0.2) (layer "F.Fab") (width 0.1) (tstamp ee3d1bdb-4017-4567-87ea-98c86d0ec3f1))
  (pad "1" smd roundrect (at -0.5 0) (size 0.5 0.5) (layers "F.Cu" "F.Paste" "F.Mask") (roundrect_rratio 0.25) (tstamp ce62ba1a-f53a-4110-97f4-63da5e261943))
  (pad "2" smd roundrect (at 0.5 0) (size 0.5 0.5) (layers "F.Cu" "F.Paste" "F.Mask") (roundrect_rratio 0.25) (tstamp 197c128e-cc59-4d8f-a3c0-35dd51914049))
)
