(footprint "LMK61" (version 20210606) (generator pcbnew) (layer "F.Cu")
  (tedit 6103D6AF)
  (fp_text reference "REF**" (at 0 -9.5 unlocked) (layer "F.SilkS")
    (effects (font (size 1 1) (thickness 0.15)))
    (tstamp 06725e7c-5c25-449a-b6a8-4117adb77678)
  )
  (fp_text value "LMK61" (at 0 -8 unlocked) (layer "F.Fab")
    (effects (font (size 1 1) (thickness 0.15)))
    (tstamp 51c04ef6-0868-431b-ab2f-15128dfba9c4)
  )
  (fp_rect (start -3 -4) (end 3 4) (layer "F.CrtYd") (width 0.12) (fill none) (tstamp ecb09791-3ccc-43c7-92a6-61f2c875a3eb))
  (fp_rect (start -2.5 -3.5) (end 2.5 3.5) (layer "F.Fab") (width 0.12) (fill none) (tstamp 361e000c-060d-4162-9984-d388fc953f10))
  (fp_circle (center -2 -3.75) (end -1.9 -3.75) (layer "F.Fab") (width 0.12) (fill solid) (tstamp 015e52c0-cd94-45fe-9587-17f5201b49ea))
  (pad "1" smd rect (at -1.85 -2.54) (size 1 1.4) (layers "F.Cu" "F.Paste" "F.Mask") (tstamp 422d27f9-512e-4079-b0aa-22e96ae50bbe))
  (pad "2" smd rect (at -1.85 0) (size 1 1.4) (layers "F.Cu" "F.Paste" "F.Mask") (tstamp e7be84d9-b6f0-4d35-b1ef-5593c5f9b005))
  (pad "3" smd rect (at -1.85 2.54) (size 1 1.4) (layers "F.Cu" "F.Paste" "F.Mask") (tstamp 9b61b232-9f3d-4e4a-aaf1-36539569b8be))
  (pad "4" smd rect (at 1.85 2.54) (size 1 1.4) (layers "F.Cu" "F.Paste" "F.Mask") (tstamp 6c6f9c1f-ef6f-4869-8bcf-63968417eccd))
  (pad "5" smd rect (at 1.85 0) (size 1 1.4) (layers "F.Cu" "F.Paste" "F.Mask") (tstamp 0eef3668-16a9-4b97-a44c-6f23b33bc4b8))
  (pad "6" smd rect (at 1.85 -2.54) (size 1 1.4) (layers "F.Cu" "F.Paste" "F.Mask") (tstamp 97a7fa87-7d81-417d-8217-c7700113b5ca))
)
